<?xml version="1.0" standalone="no"?>
<!DOCTYPE svg PUBLIC "-//W3C//DTD SVG 1.1//EN" "http://www.w3.org/Graphics/SVG/1.1/DTD/svg11.dtd" >
<svg xmlns="http://www.w3.org/2000/svg">
<metadata></metadata>
<defs>
<font id="book_antiquaregular" horiz-adv-x="1024" >
<font-face units-per-em="2048" ascent="1638" descent="-410" />
<missing-glyph horiz-adv-x="512" />
<glyph horiz-adv-x="2048" />
<glyph horiz-adv-x="2048" />
<glyph unicode="&#xd;" horiz-adv-x="2048" />
<glyph unicode=" "  horiz-adv-x="512" />
<glyph unicode="&#x09;" horiz-adv-x="512" />
<glyph unicode="&#xa0;" horiz-adv-x="512" />
<glyph unicode="!" horiz-adv-x="569" d="M166 90q0 49 34 83t83 34q48 0 82 -34t34 -83q0 -48 -34 -82.5t-82 -34.5q-49 0 -83 34.5t-34 82.5zM176 1264l1 64q78 37 154 81h72l-2 -138q-2 -29 -11 -108q-40 -345 -64 -744l-56 -52l-20 9q-27 387 -46 549q-28 245 -28 339z" />
<glyph unicode="&#x22;" horiz-adv-x="760" d="M150 1345q0 44 19.5 67.5t47.5 23.5q29 0 48 -23t19 -69q0 -23 -2 -64l-30 -448q-3 -43 -36 -43q-31 0 -34 43l-29 448q-3 41 -3 65zM476 1345q0 44 19.5 67.5t47.5 23.5q29 0 48.5 -23t19.5 -69q0 -23 -3 -64l-29 -448q-3 -43 -36 -43q-32 0 -34 43l-30 448q-3 41 -3 65 z" />
<glyph unicode="#" horiz-adv-x="1241" d="M104 445v138h230l43 273h-216v139h235l63 414h137l-62 -414h275l60 414h140l-61 -414h191v-139h-211l-39 -273h194v-138h-216l-64 -445h-141l65 445h-276l-67 -445h-139l68 445h-209zM473 583h274l42 273h-276z" />
<glyph unicode="$" d="M57 87q27 136 32 304h63l4 -186q61 -62 128.5 -91.5t174.5 -37.5v568q-185 22 -253 55.5t-106 102.5t-38 172q0 173 100 285t297 143l-5 136h88q-6 -77 -7 -131q112 -7 188 -26t150 -57l6 -15q-18 -94 -30 -250h-59l-15 177q-54 50 -99.5 68t-140.5 28v-530 q218 -30 285 -62t108 -102t41 -171q0 -113 -52 -213t-139 -159.5t-243 -87.5q-1 -132 4 -210h-89q6 81 9 205q-135 5 -213.5 22t-188.5 63zM219 1047q0 -116 66 -173q48 -43 174 -65v520q-85 -12 -133.5 -46t-77.5 -94.5t-29 -141.5zM535 81q101 20 153 57.5t83.5 104 t31.5 147.5q0 71 -25 119.5t-72.5 75.5t-170.5 52v-556z" />
<glyph unicode="%" horiz-adv-x="1720" d="M221 1117q0 149 91 247t216 98q122 0 203.5 -85.5t81.5 -225.5q0 -153 -89 -249.5t-221 -96.5q-121 0 -201.5 86t-80.5 226zM364 1111q0 -140 40.5 -198.5t106.5 -58.5q71 0 115 66.5t44 226.5q0 143 -39 201.5t-106 58.5q-71 0 -109 -59q-52 -81 -52 -237zM402 -68 q34 56 66 118l683 1319q32 60 47 108q42 -6 64 -6l38 1q-38 -60 -63 -107l-698 -1336q-27 -51 -45 -97q-30 3 -45 3t-47 -3zM906 312q0 149 91 247t216 98q122 0 203.5 -85.5t81.5 -225.5q0 -153 -89 -249.5t-221 -96.5q-121 0 -201.5 86t-80.5 226zM1049 306 q0 -140 40.5 -198.5t106.5 -58.5q71 0 115 66.5t44 226.5q0 143 -39 201.5t-106 58.5q-71 0 -109 -59q-52 -81 -52 -237z" />
<glyph unicode="&#x26;" horiz-adv-x="1593" d="M100 377q0 146 86 259q59 77 228 181q-58 152 -58 257q0 81 24 141q16 41 62 81q118 101 149 117q45 23 105 23q85 0 133.5 -52t48.5 -140q0 -205 -293 -409q164 -303 414 -525q57 69 78.5 127t21.5 122q0 70 -24 116q-11 21 -32 27q-36 10 -166 9l-5 15l61 91 q103 -6 160 -6l126 3q186 5 309 6q-16 -85 -23 -143q-107 17 -288 23q12 -52 12 -88q0 -81 -38.5 -166t-131.5 -183q102 -75 194 -107.5t167 -32.5q38 0 115 48l15 -48q-126 -90 -177 -137q-40 -13 -82 -13q-153 0 -358 166q-115 -94 -209 -130t-206 -36q-184 0 -301 116 t-117 288zM274 452q0 -140 97 -250t242 -110q125 0 259 99q-237 218 -424 552q-96 -67 -135 -136.5t-39 -154.5zM499 1152q0 -102 52 -248q184 148 184 291q0 63 -31 100.5t-78 37.5q-56 0 -91.5 -44.5t-35.5 -136.5z" />
<glyph unicode="'" horiz-adv-x="426" d="M145 1345q0 44 19.5 67.5t47.5 23.5q29 0 48 -23t19 -69q0 -23 -2 -64l-30 -448q-3 -43 -36 -43q-31 0 -34 43l-29 448q-3 41 -3 65z" />
<glyph unicode="(" horiz-adv-x="682" d="M152 475q0 231 63 426.5t159 331t227 257.5l43 -55q-116 -138 -182.5 -272.5t-101 -294.5t-34.5 -369q0 -220 32 -389.5t91.5 -299.5t194.5 -312l-50 -49q-168 167 -256.5 316t-137 329.5t-48.5 380.5z" />
<glyph unicode=")" horiz-adv-x="682" d="M39 -496q116 137 182 272t101 295t35 368q0 221 -32.5 391t-92 300t-193.5 310l50 50q167 -166 256 -315.5t137.5 -330t48.5 -380.5q0 -231 -63 -426t-159 -330.5t-227 -258.5z" />
<glyph unicode="*" horiz-adv-x="797" d="M38 1102q21 67 37 137l33 10q135 -83 252 -147l-28 304q80 0 143 3l17 -30q-40 -133 -69 -282l259 128l16 -5q28 -62 60 -120l-17 -25q-108 -10 -301 -35l203 -201l6 -17l-99 -98l-36 -2q-44 102 -122 274l-148 -250l-37 -6q-43 55 -93 105l4 14q99 73 227 179l-303 50z " />
<glyph unicode="+" horiz-adv-x="1241" d="M117 635v139h434v434h139v-434h434v-139h-434v-434h-139v434h-434z" />
<glyph unicode="," horiz-adv-x="512" d="M14 -266q87 134 127.5 243t54.5 236q116 28 204 63l28 -30q-57 -139 -123.5 -250.5t-176.5 -249.5l-84 -43z" />
<glyph unicode="-" horiz-adv-x="682" d="M43 413q30 76 51 145q146 -7 243 -7q80 0 294 7l8 -15q-33 -76 -49 -144q-137 9 -252 9q-129 0 -282 -9z" />
<glyph unicode="." horiz-adv-x="512" d="M139 90q0 49 34 83t83 34q48 0 82 -34t34 -83q0 -48 -34 -82.5t-82 -34.5q-49 0 -83 34.5t-34 82.5z" />
<glyph unicode="/" horiz-adv-x="1241" d="M73 -438q38 78 66 147l683 1646q31 75 47 135q65 -8 100 -8l58 1q-38 -75 -62 -133l-699 -1667q-27 -63 -45 -121l-73 4q-25 0 -75 -4z" />
<glyph unicode="0" d="M66 703q0 385 128.5 559t343.5 174q132 0 225 -65.5t144.5 -199t51.5 -388.5q0 -444 -128 -627t-341 -183q-147 0 -245 86.5t-144 244.5q-35 121 -35 399zM240 730q0 -409 85 -561q68 -124 196 -124q122 0 185 114q79 143 79 525q0 406 -84 554q-71 126 -200 126 q-121 0 -191 -124.5t-70 -509.5z" />
<glyph unicode="1" d="M66 1214q314 94 536 211l29 -13l-4 -113l-10 -577l-7 -394q0 -142 12 -188t38.5 -61.5t127.5 -17.5l91 -3v-65q-251 7 -356 7q-121 0 -353 -7v65l78 3q135 4 161.5 38t25.5 275l7 555q0 279 -6 307q-3 17 -18 17q-10 0 -46 -16q-170 -75 -233 -111q-44 -26 -51 -26 q-13 0 -15 17z" />
<glyph unicode="2" d="M41 -7v56l346 360q197 204 263.5 331.5t66.5 236.5q0 135 -77.5 216t-205.5 81q-84 0 -152 -30q-49 -22 -70 -55t-62 -186h-61q31 195 34 282q75 79 162 115t197 36q194 0 308.5 -109.5t114.5 -287.5q0 -154 -103.5 -302t-347.5 -373l-193 -198h365q232 0 348 13l10 -9 q-9 -57 -9 -81q0 -19 9 -90l-10 -6q-198 7 -440 7q-254 0 -493 -7z" />
<glyph unicode="3" d="M28 324l55 23q63 -145 101.5 -190t100.5 -71.5t149 -26.5q150 0 234 92.5t84 259.5q0 141 -71 218.5t-188 77.5q-90 0 -190 -51l-14 10l19 114q53 -6 79 -6q122 0 199.5 76t77.5 199q0 112 -67.5 179.5t-176.5 67.5q-72 0 -138.5 -31.5t-98.5 -71.5q-13 -17 -34 -81 l-23 -70h-62l54 245q64 75 151 112t197 37q168 0 266 -87t98 -215q0 -86 -42 -160.5t-171 -181.5q64 0 132 -25q94 -35 142.5 -105.5t48.5 -169.5q0 -201 -173 -360t-413 -159q-62 0 -123 13t-122 39q-20 121 -81 299z" />
<glyph unicode="4" d="M3 419q162 284 263 450t318 501q53 15 138 55l28 -12q-7 -117 -8 -405v-513q130 0 224 12q-6 -48 -6 -66q0 -13 6 -82q-107 10 -224 10q0 -244 16 -274.5t105 -36.5l103 -6v-59q-189 7 -324 7q-53 0 -325 -7v59l108 6q89 5 107 17t24 44q12 53 12 198v52q-387 0 -547 -10 zM136 495q115 -4 206 -4q85 0 226 4v714q-219 -318 -432 -714z" />
<glyph unicode="5" d="M24 300l51 29l25 -45q68 -122 90 -143q29 -29 88.5 -49t137.5 -20q167 0 260.5 97.5t93.5 280.5q0 160 -86.5 251.5t-228.5 91.5q-82 0 -147 -32t-115 -100l-43 14q14 174 14 444q0 169 -14 294l17 10q157 -14 322 -14q200 0 384 14l12 -10q-9 -50 -9 -78q0 -26 9 -81 l-12 -11q-114 6 -219 6q-210 0 -401 -6q-9 -76 -16 -416q74 58 141 81.5t153 23.5q186 0 299.5 -111t113.5 -289q0 -223 -178.5 -391t-422.5 -168q-62 0 -107.5 11.5t-106.5 44.5q-17 58 -30 92z" />
<glyph unicode="6" d="M68 526q0 221 83.5 401t252.5 317t388 197l73 -33v-17q-178 -47 -307 -146t-201 -231t-89 -315l113 83q56 45 102 60.5t113 15.5q170 0 265.5 -101t95.5 -285q0 -208 -136 -353.5t-327 -145.5q-188 0 -307 143t-119 410zM256 447q0 -199 83 -309q70 -93 185 -93 q112 0 180 86q79 100 79 275q0 163 -73 248t-192 85q-77 0 -143.5 -38t-96.5 -95q-22 -42 -22 -159z" />
<glyph unicode="7" d="M88 1404l18 18q148 -11 371 -11q360 0 543 14v-60q-504 -903 -680 -1369q-66 4 -95 4q-43 0 -98 -7l-17 26q138 219 467 775q154 259 253 447l-11 9l-63 1q-108 0 -420 -8q-129 -4 -146.5 -14t-26.5 -36.5t-22 -156.5l-6 -57h-63q7 132 7 242q0 98 -11 183z" />
<glyph unicode="8" d="M51 341q0 245 277 383v8q-117 68 -165 131q-63 84 -63 197q0 164 115 270t305 106q172 0 270.5 -82t98.5 -207q0 -95 -52.5 -174.5t-196.5 -167.5v-9q185 -87 244.5 -165.5t59.5 -196.5q0 -188 -142 -324.5t-346 -136.5q-180 0 -292.5 105t-112.5 263zM194 352 q0 -140 81.5 -223.5t210.5 -83.5q134 0 217 82t83 213q0 120 -74.5 187t-302.5 168q-108 -64 -152 -128q-63 -92 -63 -215zM258 1142q0 -95 56.5 -160t249.5 -152q96 56 138.5 125t42.5 159q0 117 -65.5 183.5t-176.5 66.5t-178 -61.5t-67 -160.5z" />
<glyph unicode="9" d="M59 950q0 217 129 351.5t330 134.5q207 0 326.5 -142.5t119.5 -420.5q0 -197 -60.5 -351t-184.5 -281t-279 -202q-98 -47 -232 -71l-68 35v20q193 43 322 134.5t205.5 224.5t99.5 330l-103 -82q-64 -55 -114 -74t-117 -19q-167 0 -270.5 109.5t-103.5 303.5zM233 1017 q0 -174 77 -268t198 -94q122 0 195 81t73 245q0 179 -79.5 281t-195.5 102q-73 0 -133.5 -39.5t-97.5 -121t-37 -186.5z" />
<glyph unicode=":" horiz-adv-x="512" d="M139 90q0 49 34 83t83 34q48 0 82 -34t34 -83q0 -48 -34 -82.5t-82 -34.5q-49 0 -83 34.5t-34 82.5zM139 823q0 49 34 83t83 34q48 0 82 -34t34 -83q0 -48 -34 -82t-82 -34q-49 0 -83 34t-34 82z" />
<glyph unicode=";" horiz-adv-x="512" d="M14 -274q98 168 133.5 266t48.5 221q116 28 204 63l28 -30q-56 -138 -123.5 -250.5t-175.5 -249.5l-85 -43zM177 823q0 49 34 83t82 34q49 0 83 -34t34 -83q0 -48 -34 -82t-83 -34q-48 0 -82 34t-34 82z" />
<glyph unicode="&#x3c;" horiz-adv-x="1241" d="M117 642v125l1007 458v-152l-805 -368l805 -369v-152z" />
<glyph unicode="=" horiz-adv-x="1241" d="M117 464v139h1007v-139h-1007zM117 806v139h1007v-139h-1007z" />
<glyph unicode="&#x3e;" horiz-adv-x="1241" d="M117 184v152l805 369l-805 368v152l1007 -458v-125z" />
<glyph unicode="?" horiz-adv-x="909" d="M95 1124l78 238q61 37 125.5 55.5t132.5 18.5q176 0 279 -93t103 -238q0 -59 -18.5 -113t-55 -101t-156.5 -158q-101 -93 -123 -120q-37 -44 -52 -82q-11 -26 -11 -54q0 -48 46 -103l-43 -32q-51 38 -71 76t-20 86t23 96t112 151q118 135 149 198t31 121q0 95 -71 160.5 t-181 65.5q-31 0 -63.5 -8.5t-67.5 -25.5q-54 -76 -89 -157l-51 7zM291 90q0 48 34 82.5t82 34.5q49 0 83 -34.5t34 -82.5t-34 -82.5t-83 -34.5q-48 0 -82 34.5t-34 82.5z" />
<glyph unicode="@" horiz-adv-x="1530" d="M69 695q0 201 97.5 373.5t264.5 270t364 97.5q250 0 457 -158.5t207 -427.5q0 -155 -64.5 -280.5t-183.5 -205.5t-211 -80q-60 0 -104 41t-55 123q-62 -85 -117 -117.5t-117 -32.5q-111 0 -191.5 84t-80.5 211q0 120 61 227.5t166 172.5t208 65q70 0 115 -35.5t65 -106.5 l33 124h141l-148 -554q-12 -46 -12 -74q0 -27 16 -44.5t42 -17.5q67 0 151.5 64t141 185t56.5 249q0 202 -165 352.5t-406 150.5q-180 0 -326.5 -84t-231.5 -235t-85 -334q0 -180 84.5 -325t239.5 -230.5t342 -85.5q109 0 201.5 35t175 103.5t152.5 180.5h102 q-64 -116 -122 -176q-103 -107 -234 -167t-283 -60q-207 0 -381 96.5t-269.5 261.5t-95.5 364zM475 547q0 -83 45 -135.5t104 -52.5q57 0 116.5 49.5t112 187t52.5 252.5q0 72 -33 110.5t-83 38.5q-65 0 -135 -52.5t-124.5 -172t-54.5 -225.5z" />
<glyph unicode="A" horiz-adv-x="1593" d="M39 -7v63l30 1q70 2 90.5 14.5t43.5 61.5q71 144 145 311l275 623q110 248 150 360h68l506 -1177q51 -120 68 -144.5t39 -35t99 -14.5v-63q-130 7 -248 7q-110 0 -293 -7v63l99 6q53 4 63 11q15 11 15 28q0 18 -30 94l-110 278h-578l-68 -161q-67 -160 -67 -196 q0 -23 12.5 -33t63.5 -16l96 -11v-63q-96 7 -216 7q-144 0 -253 -7zM508 555h504l-252 602z" />
<glyph unicode="B" horiz-adv-x="1251" d="M57 1353v62h83l92 -3q72 -3 113 -3q63 0 249 5l146 3q172 0 257 -60q107 -76 107 -215q0 -114 -75.5 -200t-258.5 -144q215 -14 310 -99.5t95 -236.5q0 -191 -159.5 -329.5t-405.5 -138.5l-79 2q-100 4 -169 4q-50 0 -123 -4l-83 -3v45q62 30 73.5 46t13.5 53 q7 119 7 271v623q0 250 -18 283q-22 39 -107 39h-68zM438 94q93 -14 154 -14q177 0 274.5 94.5t97.5 256.5q0 108 -43 178.5t-120.5 103t-247.5 32.5q-51 0 -115 -3v-355l1 -126q3 -68 3 -104q0 -27 -4 -63zM438 826q50 -3 92 -3q199 0 285 70.5t86 203.5q0 115 -72 176.5 t-230 61.5q-70 0 -152 -13q-9 -122 -9 -369v-127z" />
<glyph unicode="C" horiz-adv-x="1452" d="M82 709q0 211 101 377.5t285.5 258t453.5 91.5q141 0 330 -46q94 -22 153 -33q-45 -107 -52 -302h-67l-8 178q-89 59 -186.5 88t-203.5 29q-270 0 -432.5 -164t-162.5 -439q0 -193 82.5 -344t234.5 -239t321 -88q134 0 265 31q98 23 197 96l21 -20q-21 -46 -39 -93 q-117 -58 -235.5 -87.5t-238.5 -29.5q-246 0 -432.5 95t-286.5 262.5t-100 378.5z" />
<glyph unicode="D" horiz-adv-x="1585" d="M45 1353v63q165 -5 222 -5l269 2l219 4h18q124 0 253 -26q139 -28 252 -112.5t172 -212t59 -294.5q0 -338 -227.5 -559t-594.5 -221l-123 3q-181 7 -229 7q-81 0 -206 -12v48l93 55q16 155 16 542v290q0 178 -12 307q-7 75 -18.5 87t-82.5 22zM426 437q0 -181 12 -339 q135 -20 238 -20q280 0 435 144q187 175 187 510q0 292 -155.5 445t-455.5 153q-105 0 -249 -21q-12 -96 -12 -218v-654z" />
<glyph unicode="E" horiz-adv-x="1251" d="M53 1353v62h108l106 -3q89 -3 135 -3l384 5l182 1h19q84 0 169 -8q-38 -118 -42 -307h-68q0 110 -11 183q-118 44 -290 44q-137 0 -287 -12v-47q0 -70 -2 -141l-2 -154v-203q99 -6 175 -6q238 0 269.5 16.5t31.5 102.5v65h68q-7 -151 -7 -241q0 -95 7 -224h-68v58 q0 96 -37.5 117.5t-264.5 21.5q-84 0 -174 -8v-245l1 -141q0 -132 3 -193q146 -11 313 -11q112 0 188 10q49 6 104 26q25 88 51 220h67q-27 -219 -27 -292l2 -45q-115 -11 -226 -11l-157 3q-260 7 -382 7q-117 0 -311 -7v63h31q87 0 109.5 17t30 80t7.5 278v549 q0 135 -6.5 221t-14 102.5t-21.5 25.5t-86 16z" />
<glyph unicode="F" horiz-adv-x="1139" d="M37 -7v62h80q86 0 105.5 33t19.5 241v755q0 203 -21.5 236t-111.5 33h-72v63q166 -7 299 -7l575 11q90 0 170 -9q-32 -107 -35 -303h-64q-6 104 -24 186q-137 36 -277 36q-122 0 -239 -13q-12 -130 -12 -236v-318q60 -3 118 -3q150 0 263 8q38 2 51.5 16.5t22.5 77.5 l10 76h63q-9 -183 -9 -235l1 -236h-65v77q0 92 -35 112t-268 20q-64 0 -152 -3v-344q0 -205 22 -239.5t112 -34.5h71v-62q-190 7 -303 7q-114 0 -295 -7z" />
<glyph unicode="G" horiz-adv-x="1563" d="M25 696q0 216 103 384.5t287 262t466 93.5q115 0 212 -15t253 -60l85 -23q-27 -106 -43 -296h-62v66q0 98 -16 115q-30 32 -159 79.5t-295 47.5q-294 0 -450 -158q-170 -172 -170 -455q0 -272 153 -458q180 -220 491 -220q162 0 351 71q6 84 6 179q0 123 -4 141.5 t-14.5 24t-104.5 13.5l-118 10v64q229 -10 340 -10q96 0 165 10v-50l-70 -46q-15 -84 -15 -171q0 -92 15 -207q-133 -52 -300.5 -83.5t-320.5 -31.5q-236 0 -414.5 92.5t-274.5 257t-96 373.5z" />
<glyph unicode="H" horiz-adv-x="1704" d="M45 -7v63h62q105 0 124 35.5t19 325.5v603q0 262 -19.5 297.5t-111.5 35.5h-74v63q165 -7 307 -7q143 0 279 7v-63h-43q-93 0 -115 -15t-27 -49q-8 -55 -8 -267v-228q178 -8 453 -8q233 0 379 8v195q0 171 -12 287q-4 41 -27 59t-94 18h-72v63q153 -7 290 -7q148 0 308 7 v-63h-76q-77 0 -98.5 -17t-26 -62.5t-4.5 -286.5v-553q0 -307 17.5 -342.5t109.5 -35.5h78v-63q-138 7 -285 7q-168 0 -313 -7v63h69q76 0 98 17.5t27 65.5q11 103 11 300v260q-141 8 -360 8q-312 0 -472 -8v-279q0 -72 5 -169q6 -136 10 -150.5t29 -29.5t81 -15h68v-63 q-130 7 -251 7q-117 0 -335 -7z" />
<glyph unicode="I" horiz-adv-x="690" d="M61 -7v63h63q93 0 111.5 45t18.5 431v339q0 400 -16 441t-96 41h-81v63q166 -7 328 -7q135 0 245 7v-63h-77q-71 0 -89 -17t-21 -86q-5 -107 -5 -381v-345q0 -389 17 -428.5t109 -39.5h66v-63q-123 7 -268 7q-169 0 -305 -7z" />
<glyph unicode="J" horiz-adv-x="682" d="M-23 -239l21 11q54 -34 110 -34q80 0 112 54.5t32 291.5v862q0 330 -19 368.5t-119 38.5h-67v63q108 -7 274 -7q184 0 312 7v-63l-66 -4q-81 -7 -97.5 -18t-22.5 -37.5t-6 -170.5v-861q0 -214 -28 -307q-43 -148 -159.5 -252t-222.5 -104q-19 0 -54 5q3 44 3 72z" />
<glyph unicode="K" horiz-adv-x="1487" d="M57 -7v63h81q80 0 96 29.5t16 254.5v669q0 275 -16 309.5t-96 34.5h-81v63q183 -7 265 -7q59 0 308 7v-63l-79 -3q-68 -3 -86 -18.5t-22.5 -61.5t-4.5 -265v-270h14q82 67 141 122.5t194 194.5l284 294v70q110 -7 182 -7q75 0 166 7v-63h-54q-72 0 -122 -27.5 t-231 -193.5l-382 -351l682 -635l62 -59q19 -19 38.5 -25t64.5 -6v-63q-82 7 -144 7q-65 0 -142 -7l-689 654q-35 33 -43 33q-21 0 -21 -39v-305q0 -223 9 -244q15 -36 108 -36h75v-63q-163 7 -289 7q-132 0 -284 -7z" />
<glyph unicode="L" horiz-adv-x="1251" d="M51 1353v63q238 -7 316 -7q104 0 282 7v-63h-124q-53 0 -67 -30.5t-14 -253.5v-637l3 -282l-3 -59q98 -5 191 -5q188 0 294 10q74 8 153 29l60 235h65q-25 -189 -39 -353q-90 -15 -246 -15l-476 8q-96 0 -299 -11v53q80 35 94.5 75t14.5 317v550q0 300 -14.5 334.5 t-81.5 34.5h-109z" />
<glyph unicode="M" horiz-adv-x="1937" d="M47 -7v63h65q66 0 88 19t27 69q13 140 13 302v566q0 205 -9 271q-4 34 -29.5 52t-101.5 18h-53v63q174 -7 219 -7q57 0 162 7q121 -269 279 -593l263 -541l243 501q128 263 292 633q125 -7 176 -7q59 0 213 7v-63h-65q-88 0 -107.5 -30.5t-19.5 -219.5v-731 q0 -244 20.5 -280t114.5 -36h57v-63q-139 7 -266 7q-140 0 -293 -7v63h66q79 0 95.5 34.5t16.5 296.5v813l-297 -618q-167 -348 -274 -608h-40q-37 89 -212 457l-358 741v-773q0 -270 21.5 -306.5t133.5 -36.5h37v-63q-139 7 -226 7q-63 0 -251 -7z" />
<glyph unicode="N" horiz-adv-x="1702" d="M45 -7v63h72q65 0 85 18t25 71q11 110 11 299v497q0 140 -3 277q-2 58 -15.5 79.5t-39.5 38.5t-73 17h-62v63q127 -7 194 -7q72 0 158 7q99 -121 186.5 -235.5t181.5 -230.5l342 -420q185 -226 267 -314v642q0 403 -14.5 440.5t-115.5 47.5l-75 7v63q161 -7 250 -7 q93 0 240 7v-63h-77q-93 0 -107 -62q-9 -41 -9 -438v-451q0 -182 16 -435q-136 21 -158 30.5t-42 31.5q-111 123 -233 273l-719 888v-691q0 -236 9 -329q7 -71 23.5 -86.5t95.5 -22.5l64 -5v-63q-109 7 -197 7q-61 0 -280 -7z" />
<glyph unicode="O" horiz-adv-x="1610" d="M47 705q0 329 212 530t565 201q346 0 542.5 -186.5t196.5 -495.5q0 -333 -228 -557t-575 -224q-217 0 -374 88t-248 257t-91 387zM250 787q0 -226 77.5 -393.5t207.5 -251t297 -83.5q155 0 271 71t182.5 212t66.5 343q0 212 -73.5 362.5t-201.5 226.5t-303 76 q-160 0 -276 -67t-182 -196.5t-66 -299.5z" />
<glyph unicode="P" horiz-adv-x="1237" d="M45 -7v63h90q63 0 81 15.5t23 63t11 290.5v534l-3 207q-2 129 -27.5 158t-124.5 29h-50v63q125 -5 317 -5q113 0 251 6q91 4 138 4q242 0 352 -88q109 -88 109 -238q0 -109 -63 -209.5t-178.5 -161.5t-246.5 -61q-60 0 -150 19l-20 76q88 -23 147 -23q138 0 219 83.5 t81 228.5q0 140 -86.5 218.5t-257.5 78.5q-97 0 -212 -37q-7 -144 -7 -307v-571q0 -301 18 -337t118 -36h69v-63q-177 7 -279 7q-90 0 -319 -7z" />
<glyph unicode="Q" horiz-adv-x="1610" d="M47 708q0 326 212 527t565 201q346 0 542.5 -186.5t196.5 -496.5q0 -238 -115.5 -417.5t-302.5 -275.5q-134 -69 -319 -86q115 -30 239 -81q259 -106 374 -106q39 0 118 20v-52q-112 -58 -166 -110q-87 11 -157 29.5t-213 71.5q-236 86 -317 86q-23 0 -48.5 -10 t-127.5 -67v66q171 115 245 153q-226 0 -386 89.5t-250 255.5t-90 389zM258 789q0 -225 77 -392t206 -250.5t295 -83.5q154 0 269 71t181 211t66 342q0 212 -73 362t-200 225.5t-301 75.5q-159 0 -274 -67t-180.5 -196t-65.5 -298z" />
<glyph unicode="R" horiz-adv-x="1368" d="M59 -7v63h75q86 0 102 37.5t16 394.5v481q0 310 -18.5 347t-120.5 37h-54v64q186 -8 284 -8q66 0 190 5q144 5 207 5q173 0 262.5 -36.5t136 -105.5t46.5 -165q0 -141 -101.5 -249t-294.5 -148q98 -141 243 -328l192 -249q51 -64 68 -73t35 -9h26v-63q-83 7 -145 7 q-57 0 -120 -7l-354 478q-99 132 -212 258l10 34q58 -5 86 -5q167 0 261.5 86t94.5 230q0 129 -80 201.5t-231 72.5q-105 0 -211 -39q-12 -159 -12 -340v-483q0 -353 17 -391.5t110 -38.5h78v-63q-166 7 -275 7q-86 0 -311 -7z" />
<glyph unicode="S" horiz-adv-x="1075" d="M27 993q0 195 141 319t390 124q100 0 200.5 -21.5t201.5 -65.5q-28 -104 -30 -276h-69v80q0 78 -21 106t-109.5 59.5t-186.5 31.5q-160 0 -251.5 -81t-91.5 -208q0 -80 37.5 -137.5t101 -83t269.5 -44.5q206 -20 278.5 -53t116 -106t43.5 -173q0 -201 -168 -346 t-448 -145q-96 0 -193.5 19.5t-196.5 57.5q17 114 17 288v20h68v-50q0 -97 10 -120t47 -49q55 -39 131 -59.5t164 -20.5q189 0 292 89t103 226q0 80 -35 135.5t-98 82.5t-233 41q-226 18 -307 54t-127 113.5t-46 192.5z" />
<glyph unicode="T" horiz-adv-x="1255" d="M34 1416q540 -7 635 -7l553 7q-19 -169 -22 -326h-62l-10 131q-6 68 -17 80.5t-49 15.5q-110 8 -250 8h-78q-11 -150 -11 -316v-570q0 -318 16 -350.5t114 -32.5h75v-63q-177 7 -300 7q-124 0 -298 -7v63h84q66 0 86 17.5t25 68.5q10 117 10 302v571q0 169 -7 310h-102 q-247 0 -272 -11.5t-33 -89.5l-14 -134h-63l2 119q0 72 -12 207z" />
<glyph unicode="U" horiz-adv-x="1593" d="M39 1353v63q205 -7 298 -7q98 0 288 7v-63h-73q-94 0 -113 -36t-19 -326v-392q0 -215 23.5 -299t121.5 -142t262 -58q169 0 285 62q80 43 117 133.5t37 343.5v377q0 262 -23.5 299.5t-129.5 37.5h-52v63q207 -7 263 -7q91 0 226 7v-63h-68q-79 0 -101.5 -42.5 t-22.5 -298.5v-375q0 -257 -25.5 -346.5t-93 -161.5t-180 -114t-264.5 -42q-157 0 -275 37.5t-177.5 92.5t-86 134.5t-26.5 270.5l2 190v305q0 282 -16.5 316t-105.5 34h-71z" />
<glyph unicode="V" horiz-adv-x="1479" d="M25 1353v63q157 -7 267 -7q116 0 278 7v-72h-99q-51 0 -66 -9.5t-15 -29.5q0 -13 5 -29l130 -343l270 -689l263 657q133 335 133 392q0 46 -55 48l-41 3l-86 9v63q133 -7 219 -7q90 0 226 7v-63h-40q-48 0 -69.5 -22.5t-77.5 -159.5l-337 -823q-95 -232 -135 -371h-103 q-45 134 -92 251l-358 895q-77 194 -90 212t-86 18h-41z" />
<glyph unicode="W" horiz-adv-x="2048" d="M21 1353v63q143 -7 247 -7q101 0 273 7v-63h-63q-68 0 -88.5 -12t-20.5 -39q0 -16 5 -37l69 -332l142 -636l232 572q59 147 214 560h63q59 -185 159 -468l241 -678l183 633q26 91 90 350q6 23 6 38q0 18 -15 27t-74 15l-91 7v63q141 -7 221 -7q86 0 213 7v-63h-52 q-34 0 -51 -16q-32 -33 -152 -420q-159 -516 -264 -940h-104q-18 67 -30 100q-44 129 -204 568l-164 450l-187 -453q-168 -406 -249 -665h-101l-53 246q-22 109 -51 232l-174 748q-25 110 -45 130t-83 20h-42z" />
<glyph unicode="X" horiz-adv-x="1366" d="M33 -7v63h45q41 0 67 24t219 293l240 333l-150 250q-142 238 -230 323q-49 46 -103 46q-19 0 -63 -5v63l294 47q49 -40 83.5 -84.5t121.5 -191.5l170 -288l374 549h208v-62h-39q-41 0 -63.5 -13.5t-135.5 -158.5q-214 -274 -298 -395l328 -528q100 -161 123.5 -181.5 t67.5 -20.5h42v-63q-116 7 -177 7t-124 -7l-375 631q-82 -106 -223 -324.5t-188 -306.5q-48 7 -94 7q-55 0 -120 -7z" />
<glyph unicode="Y" horiz-adv-x="1366" d="M14 1320v62q41 8 161 32l79 16q46 -17 74 -43q50 -47 153 -215q79 -129 262 -475q61 92 193 320l229 398h155v-25q-122 -137 -299 -413t-212 -370q-12 -33 -12 -169q0 -181 9 -287q6 -57 20.5 -68.5t102.5 -19.5l76 -8v-62q-174 7 -272 7l-322 -7v62h85q85 0 102 35 t17 316q0 82 -5 179q-129 237 -238 410t-184 253q-41 44 -71.5 58t-102.5 14z" />
<glyph unicode="Z" horiz-adv-x="1366" d="M45 -7v59q107 119 254 315l453 600q184 244 262 354q-145 6 -251 6q-180 0 -386 -14q-90 -7 -106 -22t-22 -90l-10 -118h-65q6 109 6 169q0 59 -6 165l124 1l783 -9q127 0 211 8v-61q-101 -114 -160 -189l-319 -421l-498 -660h435q271 0 355 7q48 5 69.5 29t31.5 116 l12 114h74q-20 -157 -20 -304v-55q-120 -3 -186 -3q-55 0 -240 5q-197 5 -368 5q-280 0 -433 -7z" />
<glyph unicode="[" horiz-adv-x="682" d="M186 -425q4 80 8 339l7 564q0 768 -15 999l12 13q105 -8 179 -8q114 0 178 6l24 1q21 0 25.5 -6t4.5 -42q0 -23 -7 -27q-5 -4 -63 -6q-116 -5 -134.5 -17t-25.5 -34t-12 -303t-5 -529q0 -255 5 -532t12 -298.5t28.5 -35t131.5 -15.5q55 -1 62.5 -5.5t7.5 -27.5v-23 q0 -24 -24 -24l-30 1q-89 5 -172 5q-88 0 -185 -8z" />
<glyph unicode="\" horiz-adv-x="1241" d="M73 1483h82q14 0 75 7q19 -67 47 -135l684 -1646q34 -81 66 -147l-78 4q-14 1 -71 -4q-20 63 -44 121l-699 1667q-28 68 -62 133z" />
<glyph unicode="]" horiz-adv-x="682" d="M73 -389q0 22 5.5 26t92.5 8q91 5 108.5 17t24 36t11.5 302.5t5 531.5q0 263 -5 533.5t-12 292t-28 35t-132 15.5q-57 1 -63.5 6.5t-6.5 49.5q0 25 24 25l30 -1q100 -6 171 -6q85 0 186 8l12 -13q-5 -112 -7 -178q-9 -473 -9 -725l11 -845q1 -74 5 -154l-12 -13 q-97 8 -173 8q-127 0 -184 -5l-24 -1q-21 0 -25.5 5.5t-4.5 41.5z" />
<glyph unicode="^" horiz-adv-x="1241" d="M104 666l459 831h114l457 -831h-120l-394 695l-396 -695h-120z" />
<glyph unicode="_" d="M-12 -154h1048v-102h-1048v102z" />
<glyph unicode="`" horiz-adv-x="682" d="M88 1313q0 26 18 43.5t49 17.5q19 0 35 -8.5t53 -44.5l295 -283h-67l-269 161q-76 45 -98 71q-16 19 -16 43z" />
<glyph unicode="a" d="M68 207q0 101 48.5 176.5t138 111.5t415.5 94q-2 127 -56 190q-68 79 -194 79q-48 0 -90 -12t-78 -36q-29 -71 -53 -136l-56 15l1 67l-1 69l109 62q74 42 129.5 58t118.5 16q138 0 222.5 -62t101.5 -158q12 -72 15 -357q2 -269 12 -297t50 -28h78v-66q-114 7 -159 7 q-56 0 -150 -7l1 89q0 43 -1 87l-207 -158q-28 -21 -55 -29.5t-75 -8.5q-129 0 -197 63.5t-68 170.5zM242 255q0 -74 43 -118.5t111 -44.5q75 0 143.5 42t130.5 125l-2 222l2 49q-278 -60 -353 -112.5t-75 -162.5z" />
<glyph unicode="b" horiz-adv-x="1133" d="M14 1358v56q87 9 180 29q64 13 136 41q11 5 19 5q21 0 21 -38l-5 -50q-7 -57 -8 -85q-3 -129 -3 -352v-212l122 123q39 38 102.5 61.5t135.5 23.5q161 0 265 -111t104 -295q0 -101 -36.5 -196.5t-88.5 -154.5q-24 -28 -133.5 -107.5t-141.5 -94.5q-60 -28 -143 -28 q-75 0 -134.5 20t-124.5 69l-80 -74l-34 13q19 154 19 324v635q0 147 -9 301q-4 71 -17 84t-59 13h-87zM354 319q0 -108 8 -124q16 -33 86.5 -76t154.5 -43q146 0 226 117t80 284q0 174 -77.5 265.5t-208.5 91.5q-87 0 -159.5 -50t-99.5 -117q-10 -26 -10 -120v-228z" />
<glyph unicode="c" horiz-adv-x="909" d="M45 443q0 129 43 224.5t120.5 149.5t193.5 106q82 37 183 37q77 0 132.5 -12.5t119.5 -44.5q-25 -132 -27 -264h-63v50q0 64 -18.5 90.5t-84.5 52.5t-144 26q-135 0 -208 -82.5t-73 -246.5q0 -211 108 -338q97 -115 250 -115q60 0 118 15t115 44l27 -24l-41 -64 q-68 -37 -140 -55.5t-147 -18.5q-147 0 -249.5 56t-158.5 162t-56 252z" />
<glyph unicode="d" horiz-adv-x="1251" d="M90 440q0 133 44 227t105 136.5t190 107.5q99 49 183 49q57 0 117.5 -15t124.5 -46v362q0 63 -14 79t-64 16h-86v60q178 12 332 74l18 -12q-7 -102 -12 -246l-4 -266l-2 -86v-597q0 -167 10 -186q15 -27 83 -36l71 -9v-59q-123 9 -217 9q-17 0 -126 -9q7 68 11 193 q-85 -66 -217 -185q-85 -28 -150 -28q-169 0 -283 127t-114 340zM264 500q0 -187 91.5 -293.5t222.5 -106.5q80 0 147 44.5t98 115.5t31 223v244q-69 74 -143.5 111t-155.5 37q-131 0 -211 -95.5t-80 -279.5z" />
<glyph unicode="e" horiz-adv-x="981" d="M57 450q0 168 70 291q46 81 170 150t241 69q177 0 280.5 -104t103.5 -291l-2 -59q-66 -16 -126 -21q-107 -8 -297 -8h-250q5 -197 101 -299t252 -102q70 0 139 23t137 69l17 -15l-32 -84q-83 -48 -171 -72t-181 -24q-203 0 -327.5 128.5t-124.5 348.5zM250 552 q155 -7 342 -7q75 0 145 7v56q0 88 -35 167q-22 49 -77 81.5t-127 32.5q-112 0 -179 -82t-69 -255z" />
<glyph unicode="f" horiz-adv-x="682" d="M23 -7v58h67q78 0 92 31q19 42 19 315v389l-144 -10v42q71 35 144 74v127q0 97 26.5 158t106.5 144q106 111 165 145q39 23 98 23q39 0 87 -13q-3 -51 -3 -82t3 -85l-25 -11q-59 52 -135 52q-84 0 -119.5 -57t-35.5 -278v-133q162 1 265 10l7 -10l-16 -96l-123 3 q-45 0 -133 -3v-389q0 -280 16.5 -313t100.5 -33h88v-58q-164 8 -235 8z" />
<glyph unicode="g" horiz-adv-x="1139" d="M84 -268q0 81 58 164q104 49 175 99q-82 27 -105.5 49.5t-23.5 57.5q0 42 23 83q13 25 66 61l97 69q-120 30 -173 85q-70 74 -70 189q0 101 52 184t153 131q129 61 249 61q76 0 133.5 -20t117.5 -68h84q130 0 202 8l11 -21q-30 -43 -53 -90h-185q23 -64 23 -105 q0 -89 -54 -171.5t-154 -133t-216 -50.5l-47 1q-66 -49 -83.5 -73t-17.5 -47q0 -38 39 -60t159 -22q46 0 132 3q123 5 178 5q79 0 121 -25.5t72 -89t30 -143.5q0 -112 -68 -214.5t-198 -164.5t-299 -62q-206 0 -317 89.5t-111 220.5zM242 -255q0 -109 81 -180t225 -71 q111 0 195 41t130.5 112.5t46.5 147.5q0 65 -32.5 114t-77.5 63q-23 7 -105 7h-234q-71 0 -97 -16q-84 -54 -102 -87q-30 -52 -30 -131zM305 659q0 -133 63.5 -208.5t159.5 -75.5t155.5 63.5t59.5 177.5q0 125 -64 201t-161 76q-96 0 -154.5 -62t-58.5 -172z" />
<glyph unicode="h" horiz-adv-x="1192" d="M31 -7v58l63 8q59 7 74 16.5t20 43.5q7 54 7 242v675q0 267 -14 299q-9 22 -81 22h-69v61q155 16 248 45l82 28q16 0 16 -21l-3 -41l-6 -180q-5 -136 -5 -211v-268l131 115q46 43 90.5 59t107.5 16q111 0 192.5 -44.5t113 -114t31.5 -236.5l-6 -296q0 -100 8 -158 q3 -24 16.5 -36t58.5 -16l76 -8v-58q-97 7 -189 7q-79 0 -157 -7q18 251 18 494q0 163 -20.5 221t-73.5 92t-134 34q-83 0 -151 -39.5t-94 -91.5q-18 -37 -18 -176v-174q0 -238 11 -263t80 -31l87 -8v-58q-156 7 -251 7q-99 0 -259 -7z" />
<glyph unicode="i" horiz-adv-x="596" d="M51 -7v58l86 9q50 4 61.5 18.5t14.5 96.5q5 127 5 350q0 155 -5 239q-2 31 -17.5 44t-69.5 13h-75v59q122 18 179.5 33t148.5 51l24 -15q-7 -75 -9 -165q-7 -292 -7 -431q0 -130 9 -222q4 -36 19 -50t72 -21l68 -9v-58q-146 7 -266 7q-118 0 -238 -7zM186 1293 q0 47 33 80.5t80 33.5q46 0 79 -33.5t33 -80.5t-33 -80t-79 -33q-47 0 -80 33t-33 80z" />
<glyph unicode="j" horiz-adv-x="479" d="M-86 -506q33 -6 51 -6q48 0 79 22q47 35 73.5 106t34 320t7.5 534q0 300 -11 327.5t-82 27.5h-72v57q139 15 250 52l88 31q16 0 16 -20l-2 -20q-2 -17 -8 -146q-12 -263 -12 -439l2 -257q0 -265 -45.5 -392.5t-135 -197.5t-181.5 -70l-31 1zM123 1293q0 47 33.5 80.5 t80.5 33.5t80 -33.5t33 -80.5t-33 -80t-80 -33t-80.5 33t-33.5 80z" />
<glyph unicode="k" horiz-adv-x="1139" d="M35 1356v59q84 0 240 42l101 32q16 0 16 -20l-5 -100q-2 -38 -6 -418v-401l13 -7q91 68 155 122q33 28 150 140l144 135h202v-58h-36q-35 0 -90 -33q-109 -65 -360 -273q188 -195 231 -234q200 -184 241 -217q25 -21 43 -28.5t51 -11.5v-44q-87 -39 -191 -64 q-59 48 -279 268q-161 161 -261 249h-13v-127q0 -252 16.5 -284t100.5 -32h61v-58l-54 2q-144 5 -190 5l-266 -7v58h59q77 0 91 29t14 285v596q0 331 -15 371q-9 24 -78 24h-85z" />
<glyph unicode="l" horiz-adv-x="596" d="M49 -7v58l86 7q57 5 65 29q13 39 13 355v511l-1 192l-3 131q0 49 -11 60q-16 16 -67 16h-82v60q208 19 332 78l17 -12q-17 -293 -17 -530v-514q0 -306 13 -347q7 -21 66 -27l85 -9v-58q-109 7 -208 7q-110 0 -288 -7z" />
<glyph unicode="m" horiz-adv-x="1808" d="M45 -7v58h76q65 0 78 34.5t13 375.5q0 250 -3 295t-17 57t-85 12h-62v55q147 20 253 55l73 28q18 0 18 -24l-2 -36q-2 -41 -2 -90v-33l134 120q32 29 68 41q52 18 103 18q113 0 181.5 -40.5t125.5 -145.5l129 118q33 30 81 46q63 22 122 22q90 0 163 -42t108.5 -109 t35.5 -182l-3 -391q0 -131 15 -154.5t77 -26.5l73 -3v-58l-48 3q-116 6 -157 6q-63 0 -147 -9q14 183 14 428q0 207 -18 272t-69 102t-128 37q-87 0 -149 -46.5t-77 -111.5q-10 -41 -10 -352q0 -183 3 -208.5t16.5 -36t86.5 -18.5l67 -8v-58q-177 9 -260 9q-66 0 -256 -9v58 h67q60 0 78 17t21 80q8 164 8 342q0 159 -21.5 219.5t-73 95.5t-123.5 35q-77 0 -140 -43t-86 -104q-15 -42 -15 -238q0 -215 4 -316q2 -47 15 -60t86 -20l69 -8v-58q-125 7 -236 7q-126 0 -274 -7z" />
<glyph unicode="n" horiz-adv-x="1192" d="M25 -7v58h72q74 0 86.5 34.5t12.5 415.5q0 171 -4 268q-2 32 -16 44t-79 12h-72v57q86 10 154 27t153 52q9 4 17 4q16 0 16 -23l-1 -38l-2 -135l151 134q27 24 57 35q66 22 132 22q107 0 185 -43.5t112 -113t34 -217.5l-5 -315q0 -163 14 -188q19 -32 74 -32h72v-58 q-107 7 -185 7q-76 0 -163 -7q19 195 19 527q0 134 -23.5 190t-79 90t-133.5 34q-97 0 -164.5 -49t-83.5 -108q-10 -39 -10 -204q0 -183 3 -340q1 -47 14 -59q25 -23 82 -23h71v-58q-169 7 -269 7q-106 0 -241 -7z" />
<glyph unicode="o" horiz-adv-x="1118" d="M72 473q0 138 64 249.5t179.5 174.5t262.5 63q213 0 341 -126t128 -336q0 -248 -167 -394q-149 -131 -357 -131q-200 0 -325.5 134.5t-125.5 365.5zM260 544q0 -206 84.5 -352.5t243.5 -146.5q121 0 195.5 92t74.5 279q0 151 -44 261.5t-116 161t-161 50.5 q-79 0 -142.5 -40t-93.5 -107q-41 -91 -41 -198z" />
<glyph unicode="p" horiz-adv-x="1231" d="M41 -495h73q77 0 91 33t14 352v614q0 160 -8 247q-4 42 -19.5 55.5t-72.5 13.5h-78v62q139 15 273 57l61 24q16 0 16 -28l-3 -106l-1 -71l140 124q53 47 90 59q59 19 138 19q178 0 288 -110t110 -284q0 -87 -25 -171.5t-61 -138t-81 -89.5q-15 -12 -122 -79l-40 -29 q-76 -53 -122.5 -69.5t-106.5 -16.5q-47 0 -99 13.5t-109 39.5v-141q0 -217 6 -306q3 -39 25 -56.5t93 -17.5h54v-56q-189 6 -277 6q-97 0 -247 -6v56zM387 208q64 -72 128 -102t138 -30q158 0 242 119t84 283q0 110 -38.5 188.5t-112.5 123t-159 44.5q-60 0 -117.5 -24 t-100.5 -66.5t-55 -78.5q-9 -27 -9 -143v-314z" />
<glyph unicode="q" horiz-adv-x="1147" d="M59 427q0 137 42 230.5t120 149.5q20 14 184 105q87 48 199 48q66 0 131.5 -17.5t131.5 -52.5l104 67l38 -22q-31 -92 -38 -157q-11 -100 -11 -336v-554q0 -306 19 -344t114 -38h45v-57l-157 4l-125 2q-47 0 -242 -6v57h54q91 0 107.5 35.5t16.5 352.5v235 q-119 -70 -234 -145q-28 -5 -52 -8t-44 -3q-174 0 -288.5 124t-114.5 330zM233 494q0 -189 88.5 -295.5t214.5 -106.5q66 0 128.5 32t127.5 110v191q-3 288 -7 348q-62 56 -120.5 79t-129.5 23q-135 0 -218.5 -99t-83.5 -282z" />
<glyph unicode="r" horiz-adv-x="809" d="M33 -7v58l96 8q51 4 64.5 19t17.5 97q7 144 7 342q0 241 -19 283q-13 27 -82 27h-84v58q97 11 173 28.5t135 44.5q14 7 23 7q11 0 15 -6t4 -27l-3 -198q40 38 87 100q56 73 104 100t101 27q55 0 84 -13q14 -6 14 -19l-1 -10q-15 -81 -17 -227h-45q-23 51 -54.5 72 t-75.5 21q-59 0 -109.5 -40t-67.5 -112t-17 -283q0 -139 11 -234q4 -35 20 -44q38 -21 112 -21h60v-58q-153 7 -290 7q-133 0 -263 -7z" />
<glyph unicode="s" horiz-adv-x="868" d="M72 33l3 14q4 15 7 53q9 97 9 151l-1 48h62v-65q0 -78 14 -97q26 -32 101.5 -62t155.5 -30q103 0 168 55.5t65 132.5q0 61 -38 98t-145 59q-199 40 -263 70t-96 80t-32 121q0 133 96.5 216t273.5 83q140 0 279 -56q-8 -68 -13 -228h-59q-2 88 -19 116q-23 37 -84 67 t-130 30q-91 0 -145.5 -46.5t-54.5 -116.5q0 -67 43 -101q43 -35 238 -74q144 -29 190 -54t74 -76t28 -117q0 -135 -115.5 -233t-308.5 -98q-123 0 -276 39q-27 7 -27 21z" />
<glyph unicode="t" horiz-adv-x="668" d="M44 763v43q86 33 159 69q-1 143 -8 310q116 49 167 79l26 -20q-8 -78 -17 -369q122 0 199 3l80 4l-11 -103l-41 1l-192 -1h-35v-392q0 -153 10 -196t40.5 -67t77.5 -24q29 0 56.5 11.5t54.5 34.5l29 -35l-97 -115q-32 -11 -62 -17t-58 -6q-74 0 -125 26.5t-74 69 t-23 128.5l3 193v380q-77 0 -159 -7z" />
<glyph unicode="u" horiz-adv-x="1235" d="M41 827v55q136 12 251 50l83 31q17 0 17 -25l-7 -102q-14 -212 -14 -394t15 -232.5t63 -84t117 -33.5q93 0 170.5 60t101.5 121q13 35 13 211q0 296 -11 322q-10 21 -90 21h-79v55q103 12 175 28t152 48q10 5 18 5q17 0 17 -19l-4 -93q-15 -342 -15 -602q0 -146 15 -167 q22 -31 95 -31h58v-58q-125 7 -212 7q-65 0 -130 -7l12 180l-59 -64q-69 -75 -140.5 -105.5t-176.5 -30.5q-90 0 -155 38t-94.5 98.5t-29.5 191.5q0 68 3 158l3 161q0 169 -9.5 188t-63.5 19h-89z" />
<glyph unicode="v" horiz-adv-x="1157" d="M21 882v58q147 -8 245 -8q105 0 230 8v-58h-44q-61 0 -86 -13q-17 -10 -17 -30q0 -17 18 -69t242 -605l179 432q61 150 75 208q4 16 4 27q0 19 -13 28t-67 15l-64 7v58q103 -7 184 -7q94 0 201 7v-58h-31q-23 0 -45 -9q-16 -7 -26 -18t-72 -139q-113 -233 -173 -368 t-152 -364h-103q-132 329 -270 640q-51 114 -62 146q-22 65 -49.5 88.5t-70.5 23.5h-33z" />
<glyph unicode="w" horiz-adv-x="1708" d="M18 883v58q159 -7 244 -7q83 0 245 7v-58h-54q-62 0 -85 -14q-18 -10 -18 -32q0 -49 171 -620l216 472q49 110 112 268h50q43 -122 89 -234l206 -523l153 410q44 121 57 182q5 25 5 40q0 23 -20.5 37t-63.5 14h-66v58q131 -7 232 -7q88 0 170 7v-58h-45q-35 0 -66 -35.5 t-172 -367.5q-118 -277 -184 -496h-97q-45 125 -146 381l-127 322q-140 -297 -227 -501q-39 -92 -76 -202h-102q-84 289 -190 630l-64 201q-13 33 -38.5 50.5t-58.5 17.5h-50z" />
<glyph unicode="x" horiz-adv-x="1057" d="M51 -7v61q51 0 69 9t98 98q116 129 234 278q-186 277 -240.5 325t-116.5 48q-17 0 -44 -3v54l191 93q63 -25 104 -72q66 -74 213 -315q130 173 265 371q39 -6 65 -6q21 0 88 6v-59q-54 -3 -87 -32q-54 -47 -287 -337q135 -199 226 -318q62 -81 100 -102q24 -13 76 -13 v-58q-92 -21 -200 -53q-51 37 -86 81q-22 28 -221 327q-94 -115 -144.5 -186t-128.5 -197q-42 7 -76 7q-36 0 -98 -7z" />
<glyph unicode="y" horiz-adv-x="1139" d="M12 883v58q104 -7 184 -7q62 0 289 7v-58h-74q-38 0 -55.5 -13t-17.5 -32q0 -16 19 -69q101 -278 238 -596q132 291 230 561q29 79 29 96q0 32 -68 42l-74 11v58q118 -7 210 -7q87 0 175 7v-58h-35q-23 0 -47 -13.5t-39 -37.5q-32 -51 -185 -389q-42 -93 -214 -504 q-152 -346 -172 -380q-39 -66 -100 -101.5t-132 -35.5q-29 0 -59.5 9t-61.5 26l47 156h23q27 -32 54 -48t55 -16q62 0 113 60t157 334q-44 116 -176 443l-93 229l-75 175q-35 93 -105 93h-40z" />
<glyph unicode="z" d="M43 40q97 106 263 310q225 278 402 516q-250 -1 -377 -9q-87 -5 -100.5 -17.5t-24.5 -84.5l-14 -85h-58q11 96 11 169l-2 93l8 8q306 -6 464 -6q167 0 329 6v-54q-52 -57 -102 -119l-157 -196q-99 -123 -386 -499l127 -2q208 0 360 14q59 6 76 24t35 123l11 60h59 q-23 -178 -23 -279v-8q-69 -8 -153 -8l-363 4q-223 0 -375 -7z" />
<glyph unicode="{" horiz-adv-x="682" d="M86 522q80 25 110 49q43 36 60.5 76t17.5 116v438q0 108 39 173t127 94q40 14 221 22l-33 -9q-68 -17 -110 -50t-58 -73q-24 -60 -24 -133v-440q0 -85 -18.5 -130t-60.5 -79q-31 -27 -118 -54q99 -28 148 -82t49 -191v-423q0 -63 21.5 -121.5t71.5 -95.5q37 -27 127 -47 q-155 6 -201 16q-59 13 -104.5 55t-61 101.5t-15.5 136.5v412q0 80 -17 119t-55.5 69.5t-115.5 50.5z" />
<glyph unicode="|" horiz-adv-x="1241" d="M569 -470v1960h131v-1960h-131z" />
<glyph unicode="}" horiz-adv-x="682" d="M21 -438l33 9q65 16 109.5 49t60.5 77q23 62 23 130v440q0 85 18.5 130t55 75.5t123.5 56.5q-100 29 -148.5 83t-48.5 191v423q0 62 -21.5 121t-71.5 96q-38 28 -127 47q153 -6 198 -16q60 -13 105.5 -54t62 -100.5t16.5 -138.5v-412q0 -80 17 -119.5t55 -69.5t115 -51 q-80 -24 -109 -48q-44 -36 -61 -76t-17 -116v-438q0 -109 -40 -174t-127 -94q-40 -13 -221 -21z" />
<glyph unicode="~" horiz-adv-x="1241" d="M87 552q1 109 29.5 171t85.5 99t119 37q45 0 99 -16q104 -31 281 -107q94 -40 153 -57q32 -8 69 -8q76 0 126.5 48t59.5 138h45q-5 -150 -62 -220q-70 -87 -183 -87q-46 0 -99 15.5t-274 105.5q-154 64 -219 64q-148 0 -186 -183h-44z" />
<glyph unicode="&#xa1;" horiz-adv-x="569" d="M166 -491l2 136q2 29 11 110q39 330 65 744l56 52l19 -10q27 -383 45 -541q29 -255 29 -347l-1 -64q-79 -37 -154 -80h-72zM170 823q0 49 34 83t82 34q49 0 83 -34t34 -83q0 -48 -34 -82t-83 -34q-48 0 -82 34t-34 82z" />
<glyph unicode="&#xa2;" d="M135 695q0 95 25 172.5t64.5 126t120.5 94.5q132 75 191 92q1 49 -5 143h88q-7 -93 -7 -132q34 4 55 4q107 0 220 -58q-26 -124 -29 -252h-54l-4 47q-6 67 -17.5 85.5t-61 42.5t-109.5 31v-744l42 -2q41 -1 106 16q51 12 105 40l22 -23l-38 -61q-114 -62 -237 -70 q-1 -125 4 -210h-88q5 76 8 210q-189 13 -295 130.5t-106 317.5zM309 779q0 -159 63 -267.5t164 -147.5v728q-105 -9 -166 -86.5t-61 -226.5z" />
<glyph unicode="&#xa3;" d="M28 21l1 23l1 34q42 32 105 66q43 70 61.5 122.5t27.5 128.5q5 43 8 257l-82 2l-61 -3l-48 -1l-11 9l11 80l191 -5q-5 87 -5 125q0 164 40 262q27 70 111 135q115 89 201 134.5t203 45.5q70 0 116.5 -13t98.5 -47q-13 -83 -24 -280h-60l-3 46q-4 77 -24.5 109.5t-72 57 t-120.5 24.5q-156 0 -218.5 -118.5t-67.5 -478.5h210q78 0 162 7l10 -9l-18 -86l-229 5h-139q-18 -164 -50.5 -250t-146.5 -259q106 14 205 14q89 0 289 -11q104 -6 138 -6q49 0 58 23q7 17 29 164h62q-12 -124 -14 -314l-60 -34l-86 -2q-88 0 -299 37q-189 33 -355 52 l-90 -96h-53z" />
<glyph unicode="&#xa4;" horiz-adv-x="1241" d="M91 1164l90 93l121 -121q76 60 156.5 87.5t165.5 27.5q82 0 156.5 -24.5t156.5 -85.5l117 116l89 -93l-116 -114q64 -81 90 -155.5t26 -165.5q0 -88 -24.5 -161t-86.5 -153l117 -116l-89 -91l-117 116q-80 -62 -157.5 -88.5t-165.5 -26.5q-87 0 -162.5 26t-158.5 89 l-118 -116l-89 91l117 116q-61 84 -85 156t-24 158q0 90 24.5 163.5t86.5 152.5zM244 730q0 -158 110.5 -270t266.5 -112t267 112t111 270q0 159 -110.5 270.5t-267.5 111.5q-156 0 -266.5 -111.5t-110.5 -270.5z" />
<glyph unicode="&#xa5;" d="M-38 1311v63q99 12 201 44q63 -28 101 -71t117 -228q102 -237 162 -442l299 732h148v-35q-40 -44 -64.5 -85.5t-132.5 -266.5q-107 -223 -158 -345h337v-83h-367v-201h367v-83h-367q3 -192 19.5 -218.5t101.5 -29.5l76 -3v-66q-184 7 -312 7q-127 0 -258 -7v66h78 q64 0 82 11.5t25 38.5q9 38 11 155l1 46h-367v83h367v201h-367v83h327q-104 253 -208 451q-68 130 -103.5 154.5t-115.5 28.5z" />
<glyph unicode="&#xa6;" horiz-adv-x="1241" d="M569 392l131 95v-957h-131v862zM569 555v935h131v-839z" />
<glyph unicode="&#xa7;" d="M96 560q0 147 150 267q-51 35 -77 85.5t-26 116.5q0 155 128 281t292 126q99 0 270 -48q-14 -168 -15 -322l-69 2l-28 -1q7 79 7 168q-84 82 -224 82q-108 0 -175 -60t-67 -143q0 -52 28 -94.5t89 -71.5t287 -97q154 -46 208 -106q54 -61 54 -157q0 -77 -32.5 -139.5 t-111.5 -125.5q58 -37 82 -81.5t24 -110.5q0 -110 -63.5 -216t-169.5 -165t-226 -59q-133 0 -307 84q25 165 25 276l-3 40l66 -1l32 1l-1 -46l-2 -61l3 -81q51 -53 117 -81.5t132 -28.5q75 0 138.5 31.5t96 84t32.5 115.5q0 67 -40 113t-157 88q-289 105 -331 127 q-73 40 -104.5 91t-31.5 117zM239 639q0 -41 17 -71t59 -57.5t184.5 -74t225.5 -84.5q59 92 59 163q0 45 -32.5 89t-108.5 74l-334 116q-70 -76 -70 -155z" />
<glyph unicode="&#xa8;" horiz-adv-x="682" d="M14 1153q0 45 32 77t78 32q45 0 77 -32t32 -77q0 -46 -32 -78t-77 -32q-46 0 -78 32t-32 78zM448 1153q0 45 32 77t78 32q45 0 77 -32t32 -77q0 -46 -32 -78t-77 -32t-77.5 32t-32.5 78z" />
<glyph unicode="&#xa9;" horiz-adv-x="1530" d="M34 704q0 196 98 366t267.5 268t365.5 98t365.5 -98t267.5 -268t98 -366q0 -195 -98 -365t-267.5 -268t-365.5 -98t-365.5 98t-267.5 268t-98 365zM134 704q0 -169 84.5 -315t231 -231t315.5 -85t315.5 85t231 231t84.5 315q0 170 -84.5 316t-231 230.5t-315.5 84.5 t-315.5 -84.5t-231 -230.5t-84.5 -316zM357 718q0 181 115 307t327 126q142 0 294 -58v-240h-72q-5 100 -24 136.5t-69.5 62t-122.5 25.5q-135 0 -221.5 -93t-86.5 -251q0 -166 88.5 -267t216.5 -101q80 0 142 39t110 130l61 -23q-38 -104 -132.5 -165t-219.5 -61 q-114 0 -206.5 54t-146 155t-53.5 224z" />
<glyph unicode="&#xaa;" horiz-adv-x="682" d="M41 938q0 67 32 117t92 74t272 61q-2 87 -44.5 130.5t-119.5 43.5q-31 0 -58 -7t-51 -21l-36 -90l-37 10v90l70 40q86 50 164 50q85 0 139.5 -35.5t68.5 -83t16 -261.5q2 -176 8 -194t34 -20l51 -3v-43q-74 5 -106 5q-40 0 -99 -5q3 62 3 117l-138 -104 q-22 -17 -38.5 -22t-47.5 -5q-85 0 -130 42t-45 114zM160 975q0 -49 28 -78t74 -29q47 0 91.5 26t86.5 78l-3 179q-188 -40 -232.5 -75.5t-44.5 -100.5z" />
<glyph unicode="&#xab;" d="M100 466v26q138 128 358 352l52 -34q-155 -208 -241 -330q123 -181 241 -329l-52 -35q-191 196 -358 350zM514 466v26q137 127 358 352l52 -34q-154 -206 -241 -330q123 -181 241 -329l-52 -35q-194 199 -358 350z" />
<glyph unicode="&#xac;" horiz-adv-x="1241" d="M117 806v139h1007v-481h-138v342h-869z" />
<glyph unicode="&#xad;" horiz-adv-x="682" d="M43 413q30 76 51 145q146 -7 243 -7q80 0 294 7l8 -15q-33 -76 -49 -144q-137 9 -252 9q-129 0 -282 -9z" />
<glyph unicode="&#xae;" horiz-adv-x="1530" d="M34 704q0 196 98 366t267.5 268t365.5 98t365.5 -98t267.5 -268t98 -366q0 -195 -98 -365t-267.5 -268t-365.5 -98t-365.5 98t-267.5 268t-98 365zM134 704q0 -169 84.5 -315t231 -231t315.5 -85t315.5 85t231 231t84.5 315q0 170 -84.5 316t-231 230.5t-315.5 84.5 t-315.5 -84.5t-231 -230.5t-84.5 -316zM416 1104v58h352q155 0 225.5 -58t70.5 -156q0 -79 -49 -137t-144 -80q58 -38 119 -169.5t81 -155t89 -22.5v-56h-110q-53 0 -86.5 31t-83.5 157q-54 135 -83 160.5t-108 25.5h-49v-245q0 -47 8 -57.5t38 -12.5l57 -5v-54h-323v54 l30 3q53 4 61 11.5t8 51.5v591q0 47 -9.5 54t-93.5 11zM640 765l45 -2q145 0 203.5 45t58.5 131q0 81 -50 122.5t-170 41.5q-61 0 -74 -10t-13 -44v-284z" />
<glyph unicode="&#xb0;" horiz-adv-x="819" d="M90 1117q0 132 95 225.5t227 93.5t225.5 -93.5t93.5 -228.5t-93.5 -228t-227.5 -93t-227 93t-93 231zM209 1114q0 -82 60 -142.5t143 -60.5t141.5 59.5t58.5 141.5q0 87 -57.5 146t-141.5 59q-85 0 -144.5 -59.5t-59.5 -143.5z" />
<glyph unicode="&#xb1;" horiz-adv-x="1124" d="M59 0v139h1007v-139h-1007zM59 664v139h434v434h139v-434h434v-139h-434v-434h-139v434h-434z" />
<glyph unicode="&#xb2;" horiz-adv-x="635" d="M18 550v43l216 214q124 123 164 196t40 135q0 76 -45.5 122.5t-122.5 46.5q-80 0 -119 -32q-22 -18 -53 -129h-52q21 125 23 176q46 47 103.5 70t125.5 23q124 0 196.5 -67t72.5 -174q0 -81 -51.5 -163.5t-229.5 -240.5l-41 -39l-66 -65h209q140 0 217 8l12 -10 q-5 -36 -5 -50q0 -11 5 -58l-12 -6q-118 3 -201 3q-226 0 -386 -3z" />
<glyph unicode="&#xb3;" horiz-adv-x="635" d="M8 756l47 19q47 -98 76 -122q51 -43 139 -43q91 0 141 52.5t50 144.5q0 78 -42 121t-113 43q-56 0 -119 -31l-16 11l14 78q47 -5 63 -5q72 0 118 43t46 109q0 61 -40.5 99t-108.5 38q-38 0 -76.5 -14.5t-62.5 -36.5q-13 -11 -25 -47l-16 -46h-52l36 155q41 46 96.5 68.5 t124.5 22.5q109 0 171.5 -53.5t62.5 -131.5q0 -50 -25.5 -95t-96.5 -101q67 0 128.5 -47.5t61.5 -134.5q0 -121 -108.5 -217t-262.5 -96q-39 0 -78.5 8t-79.5 24q-13 76 -53 185z" />
<glyph unicode="&#xb4;" horiz-adv-x="682" d="M143 1038l296 283q37 36 53 44.5t36 8.5q29 0 47.5 -17.5t18.5 -43.5q0 -24 -19.5 -46.5t-94.5 -67.5l-269 -161h-68z" />
<glyph unicode="&#xb5;" horiz-adv-x="1180" d="M134 -263q0 44 26 153q25 99 30.5 148t5.5 152v750h164v-557q0 -170 27 -220q38 -68 116 -68q59 0 117.5 33.5t117.5 100.5v711h165v-678q0 -121 17.5 -151.5t50.5 -30.5q63 0 81 124h42q-9 -119 -62.5 -175.5t-135.5 -56.5q-76 0 -113 49t-45 141q-90 -106 -165.5 -148 t-148.5 -42q-51 0 -85 18t-70 68q0 -59 23 -167q23 -107 23 -151q0 -50 -27 -81.5t-67 -31.5q-38 0 -62.5 29.5t-24.5 80.5z" />
<glyph unicode="&#xb6;" horiz-adv-x="1286" d="M142 1020q0 119 49 194q64 100 163 147.5t255 47.5h537v-39h-42q-55 0 -78 -15.5t-32.5 -47t-9.5 -146.5v-1616h-75v1807h-193v-1807h-76v1081q-198 8 -294 51.5t-150 133t-54 209.5z" />
<glyph unicode="&#xb8;" horiz-adv-x="682" d="M185 -354l31 60q100 -32 155 -32q52 0 79.5 24t27.5 62q0 35 -24 56.5t-68 21.5q-25 0 -55 -10l-16 13l71 159h61l-44 -106q33 6 55 6q69 0 109 -36t40 -91q0 -69 -61.5 -119.5t-167.5 -50.5q-93 0 -193 43z" />
<glyph unicode="&#xb9;" horiz-adv-x="635" d="M32 1282q196 56 339 128l26 -11q-2 -49 -12 -567l-1 -111q0 -83 15 -100t88 -18l63 -1v-53l-227 4q-70 0 -226 -4v53h55q80 0 95 20t15 140l4 342q0 161 -2.5 173.5t-12.5 12.5q-5 0 -33 -11q-65 -26 -146 -69q-10 -6 -17 -6q-17 0 -18 15z" />
<glyph unicode="&#xba;" horiz-adv-x="682" d="M18 1112q0 141 93.5 232.5t240.5 91.5q140 0 224.5 -84t84.5 -223q0 -153 -98 -251t-247 -98q-133 0 -215.5 89t-82.5 243zM137 1162q0 -137 57 -236t165 -99q82 0 132.5 62t50.5 187q0 156 -66 242q-57 75 -152 75q-88 0 -137.5 -62t-49.5 -169z" />
<glyph unicode="&#xbb;" d="M100 148q148 198 241 331q-120 176 -241 329l51 34q193 -196 359 -350v-26q-151 -139 -359 -352zM514 148q154 207 241 331q-123 180 -241 329l52 34q185 -190 358 -350v-26q-151 -139 -358 -352z" />
<glyph unicode="&#xbc;" horiz-adv-x="1612" d="M32 1282q196 56 339 128l26 -11q-2 -49 -12 -567l-1 -111q0 -83 15 -100t88 -18l63 -1v-53l-227 4q-70 0 -226 -4v53h55q80 0 95 20t15 140l4 342q0 161 -2.5 173.5t-12.5 12.5q-5 0 -33 -11q-65 -26 -146 -69q-10 -6 -17 -6q-17 0 -18 15zM355 -68q34 56 66 118 l683 1319q32 60 47 108q42 -6 64 -6l38 1q-38 -60 -63 -107l-698 -1336q-27 -51 -45 -97q-30 3 -45 3t-47 -3zM968 259q166 276 364 566q52 17 89 34l25 -10q-5 -104 -5 -539q74 0 139 8q-3 -31 -3 -51q0 -19 3 -52q-72 7 -139 6q-2 -130 7.5 -148t61.5 -21l70 -3v-50 q-123 5 -192 5l-226 -13l1 58l74 3q63 4 71 16q12 18 12 130v23q-226 0 -338 -6zM1071 310l119 -2l130 2v392q-117 -159 -249 -392z" />
<glyph unicode="&#xbd;" horiz-adv-x="1612" d="M32 1282q196 56 339 128l26 -11q-2 -49 -12 -567l-1 -111q0 -83 15 -100t88 -18l63 -1v-53l-227 4q-70 0 -226 -4v53h55q80 0 95 20t15 140l4 342q0 161 -2.5 173.5t-12.5 12.5q-5 0 -33 -11q-65 -26 -146 -69q-10 -6 -17 -6q-17 0 -18 15zM356 -68q34 56 66 118 l683 1319q32 60 47 108q42 -6 64 -6l38 1q-38 -60 -63 -107l-698 -1336q-27 -51 -45 -97q-30 3 -45 3t-47 -3zM994 -4v43l216 214q124 123 164 196t40 135q0 76 -45.5 122.5t-122.5 46.5q-80 0 -119 -32q-22 -18 -53 -129h-52q21 125 23 176q46 47 103.5 70t125.5 23 q124 0 196.5 -67t72.5 -174q0 -81 -51.5 -163.5t-229.5 -240.5l-41 -39l-66 -65h209q140 0 217 8l12 -10q-5 -36 -5 -50q0 -11 5 -58l-12 -6q-118 3 -201 3q-226 0 -386 -3z" />
<glyph unicode="&#xbe;" horiz-adv-x="1612" d="M8 756l47 19q47 -98 76 -122q51 -43 139 -43q91 0 141 52.5t50 144.5q0 78 -42 121t-113 43q-56 0 -119 -31l-16 11l14 78q47 -5 63 -5q72 0 118 43t46 109q0 61 -40.5 99t-108.5 38q-38 0 -76.5 -14.5t-62.5 -36.5q-13 -11 -25 -47l-16 -46h-52l36 155q41 46 96.5 68.5 t124.5 22.5q109 0 171.5 -53.5t62.5 -131.5q0 -50 -25.5 -95t-96.5 -101q67 0 128.5 -47.5t61.5 -134.5q0 -121 -108.5 -217t-262.5 -96q-39 0 -78.5 8t-79.5 24q-13 76 -53 185zM356 -68q34 56 66 118l683 1319q32 60 47 108q42 -6 64 -6l38 1q-38 -60 -63 -107l-698 -1336 q-27 -51 -45 -97q-30 3 -45 3t-47 -3zM968 259q166 276 364 566q52 17 89 34l25 -10q-5 -104 -5 -539q74 0 139 8q-3 -31 -3 -51q0 -19 3 -52q-72 7 -139 6q-2 -130 7.5 -148t61.5 -21l70 -3v-50q-123 5 -192 5l-226 -13l1 58l74 3q63 4 71 16q12 18 12 130v23 q-226 0 -338 -6zM1071 310l119 -2l130 2v392q-117 -159 -249 -392z" />
<glyph unicode="&#xbf;" horiz-adv-x="909" d="M68 -178q0 59 18.5 113t54.5 100.5t157 158.5q100 93 123 120q37 45 52 82q11 25 11 53q0 49 -46 104l43 32q50 -37 70.5 -75.5t20.5 -86.5t-23.5 -96t-112.5 -150q-117 -136 -148.5 -198.5t-31.5 -120.5q0 -95 71.5 -161t181.5 -66q31 0 64 8.5t67 24.5q55 77 89 157 l51 -6l6 -12l-78 -238q-60 -36 -124.5 -54.5t-133.5 -18.5q-176 0 -279 92.5t-103 237.5zM357 838q0 48 34 82t83 34t83.5 -34t34.5 -82t-34.5 -82.5t-83.5 -34.5q-48 0 -82.5 34.5t-34.5 82.5z" />
<glyph unicode="&#xc0;" horiz-adv-x="1593" d="M39 -7v63l30 1q70 2 90.5 14.5t43.5 61.5q71 144 145 311l275 623q110 248 150 360h68l506 -1177q51 -120 68 -144.5t39 -35t99 -14.5v-63q-130 7 -248 7q-110 0 -293 -7v63l99 6q53 4 63 11q15 11 15 28q0 18 -30 94l-110 278h-578l-68 -161q-67 -160 -67 -196 q0 -23 12.5 -33t63.5 -16l96 -11v-63q-96 7 -216 7q-144 0 -253 -7zM508 555h504l-252 602zM574 1792q0 26 18 43.5t49 17.5q19 0 35 -8.5t53 -44.5l295 -283h-67l-269 161q-76 45 -98 71q-16 19 -16 43z" />
<glyph unicode="&#xc1;" horiz-adv-x="1593" d="M39 -7v63l30 1q70 2 90.5 14.5t43.5 61.5q71 144 145 311l275 623q110 248 150 360h68l506 -1177q51 -120 68 -144.5t39 -35t99 -14.5v-63q-130 7 -248 7q-110 0 -293 -7v63l99 6q53 4 63 11q15 11 15 28q0 18 -30 94l-110 278h-578l-68 -161q-67 -160 -67 -196 q0 -23 12.5 -33t63.5 -16l96 -11v-63q-96 7 -216 7q-144 0 -253 -7zM508 555h504l-252 602zM599 1517l296 283q37 36 53 44.5t36 8.5q29 0 47.5 -17.5t18.5 -43.5q0 -24 -19.5 -46.5t-94.5 -67.5l-269 -161h-68z" />
<glyph unicode="&#xc2;" horiz-adv-x="1593" d="M39 -7v63l30 1q70 2 90.5 14.5t43.5 61.5q71 144 145 311l275 623q110 248 150 360h68l506 -1177q51 -120 68 -144.5t39 -35t99 -14.5v-63q-130 7 -248 7q-110 0 -293 -7v63l99 6q53 4 63 11q15 11 15 28q0 18 -30 94l-110 278h-578l-68 -161q-67 -160 -67 -196 q0 -23 12.5 -33t63.5 -16l96 -11v-63q-96 7 -216 7q-144 0 -253 -7zM508 555h504l-252 602zM521 1510l257 344h96l258 -344h-63l-245 217l-240 -217h-63z" />
<glyph unicode="&#xc3;" horiz-adv-x="1593" d="M39 -7v63l30 1q70 2 90.5 14.5t43.5 61.5q71 144 145 311l275 623q110 248 150 360h68l506 -1177q51 -120 68 -144.5t39 -35t99 -14.5v-63q-130 7 -248 7q-110 0 -293 -7v63l99 6q53 4 63 11q15 11 15 28q0 18 -30 94l-110 278h-578l-68 -161q-67 -160 -67 -196 q0 -23 12.5 -33t63.5 -16l96 -11v-63q-96 7 -216 7q-144 0 -253 -7zM452 1580q57 199 221 199q70 0 186 -52q101 -45 143 -45q84 0 126 104h54q-27 -101 -84.5 -153.5t-131.5 -52.5q-69 0 -175 45q-118 51 -165 51q-81 0 -120 -96h-54zM508 555h504l-252 602z" />
<glyph unicode="&#xc4;" horiz-adv-x="1593" d="M39 -7v63l30 1q70 2 90.5 14.5t43.5 61.5q71 144 145 311l275 623q110 248 150 360h68l506 -1177q51 -120 68 -144.5t39 -35t99 -14.5v-63q-130 7 -248 7q-110 0 -293 -7v63l99 6q53 4 63 11q15 11 15 28q0 18 -30 94l-110 278h-578l-68 -161q-67 -160 -67 -196 q0 -23 12.5 -33t63.5 -16l96 -11v-63q-96 7 -216 7q-144 0 -253 -7zM490 1631q0 45 32 77t78 32q45 0 77 -32t32 -77q0 -46 -32 -78t-77 -32q-46 0 -78 32t-32 78zM508 555h504l-252 602zM924 1631q0 45 32 77t78 32q45 0 77 -32t32 -77q0 -46 -32 -78t-77 -32t-77.5 32 t-32.5 78z" />
<glyph unicode="&#xc5;" horiz-adv-x="1593" d="M39 -7v63l30 1q70 2 90.5 14.5t43.5 61.5q71 144 145 311l275 623q110 248 150 360h68l506 -1177q51 -120 68 -144.5t39 -35t99 -14.5v-63q-130 7 -248 7q-110 0 -293 -7v63l99 6q53 4 63 11q15 11 15 28q0 18 -30 94l-110 278h-578l-68 -161q-67 -160 -67 -196 q0 -23 12.5 -33t63.5 -16l96 -11v-63q-96 7 -216 7q-144 0 -253 -7zM508 555h504l-252 602zM589 1760q0 86 60.5 146.5t147.5 60.5q86 0 147 -60.5t61 -146.5q0 -85 -61 -146t-147 -61t-147 61t-61 146zM700 1760q0 -44 28.5 -74t68.5 -30t68.5 30t28.5 74t-28.5 74.5 t-68.5 30.5t-68.5 -30.5t-28.5 -74.5z" />
<glyph unicode="&#xc6;" horiz-adv-x="1933" d="M4 -7v63h37q41 0 70.5 21t69.5 95l569 1033q53 97 53 115q0 15 -12.5 22t-75.5 11l-116 8v60l485 -9l93 -1l323 8l59 1q144 0 264 -10q-33 -128 -33 -310h-68l2 59q0 46 -14 130q-134 40 -317 40q-72 0 -236 -12l-4 -217v-329q91 -5 160 -5q224 0 258 17t34 93v76h68 q-5 -88 -5 -188q0 -122 5 -275h-68v63q0 93 -29.5 113.5t-199.5 20.5q-103 0 -223 -10v-378q0 -110 4 -206q226 -12 284 -12q198 0 301 42q27 96 48 220h70q-14 -82 -19 -143.5t-5 -190.5q-103 -14 -261 -14l-441 6q-133 0 -271 -7v47q52 21 96 52q12 150 13 408 q-101 4 -194 4q-133 0 -306 -4l-54 -96q-71 -126 -113 -227q-16 -38 -16 -56q0 -22 18 -34t97 -22l68 -9v-63q-125 7 -234 7q-119 0 -234 -7zM518 586h454v376q0 222 -8 384h-24q-184 -311 -308 -545z" />
<glyph unicode="&#xc7;" horiz-adv-x="1452" d="M82 709q0 211 101 377.5t285.5 258t453.5 91.5q141 0 330 -46q94 -22 153 -33q-45 -107 -52 -302h-67l-8 178q-89 59 -186.5 88t-203.5 29q-270 0 -432.5 -164t-162.5 -439q0 -193 82.5 -344t234.5 -239t321 -88q134 0 265 31q98 23 197 96l21 -20q-21 -46 -39 -93 q-117 -58 -235.5 -87.5t-238.5 -29.5q-246 0 -432.5 95t-286.5 262.5t-100 378.5zM631 -354l31 60q100 -32 155 -32q52 0 79.5 24t27.5 62q0 35 -24 56.5t-68 21.5q-25 0 -55 -10l-16 13l71 159h61l-44 -106q33 6 55 6q69 0 109 -36t40 -91q0 -69 -61.5 -119.5t-167.5 -50.5 q-93 0 -193 43z" />
<glyph unicode="&#xc8;" horiz-adv-x="1251" d="M53 1353v62h108l106 -3q89 -3 135 -3l384 5l182 1q93 1 188 -8q-38 -118 -42 -307h-68q0 110 -11 183q-118 44 -290 44q-137 0 -287 -12q1 -94 -2 -188l-2 -154v-203q99 -6 175 -6q238 0 269.5 16.5t31.5 102.5v65h68q-7 -151 -7 -241q0 -95 7 -224h-68v58 q0 96 -37.5 117.5t-264.5 21.5q-84 0 -174 -8v-245l1 -141q0 -132 3 -193q146 -11 313 -11q112 0 188 10q49 6 104 26q25 88 51 220h67q-27 -219 -27 -292l2 -45q-115 -11 -226 -11l-157 3q-260 7 -382 7q-117 0 -311 -7v63h31q87 0 109.5 17t30 80t7.5 278v549 q0 135 -6.5 221t-14 102.5t-21.5 25.5t-86 16zM372 1792q0 26 18 43.5t49 17.5q19 0 35 -8.5t53 -44.5l295 -283h-67l-269 161q-76 45 -98 71q-16 19 -16 43z" />
<glyph unicode="&#xc9;" horiz-adv-x="1251" d="M53 1353v62h108l106 -3q89 -3 135 -3l384 5l182 1q93 1 188 -8q-38 -118 -42 -307h-68q0 110 -11 183q-118 44 -290 44q-137 0 -287 -12q1 -94 -2 -188l-2 -154v-203q99 -6 175 -6q238 0 269.5 16.5t31.5 102.5v65h68q-7 -151 -7 -241q0 -95 7 -224h-68v58 q0 96 -37.5 117.5t-264.5 21.5q-84 0 -174 -8v-245l1 -141q0 -132 3 -193q146 -11 313 -11q112 0 188 10q49 6 104 26q25 88 51 220h67q-27 -219 -27 -292l2 -45q-115 -11 -226 -11l-157 3q-260 7 -382 7q-117 0 -311 -7v63h31q87 0 109.5 17t30 80t7.5 278v549 q0 135 -6.5 221t-14 102.5t-21.5 25.5t-86 16zM498 1517l296 283q37 36 53 44.5t36 8.5q29 0 47.5 -17.5t18.5 -43.5q0 -24 -19.5 -46.5t-94.5 -67.5l-269 -161h-68z" />
<glyph unicode="&#xca;" horiz-adv-x="1251" d="M53 1353v62h108l106 -3q89 -3 135 -3l384 5l182 1q93 1 188 -8q-38 -118 -42 -307h-68q0 110 -11 183q-118 44 -290 44q-137 0 -287 -12q1 -94 -2 -188l-2 -154v-203q99 -6 175 -6q238 0 269.5 16.5t31.5 102.5v65h68q-7 -151 -7 -241q0 -95 7 -224h-68v58 q0 96 -37.5 117.5t-264.5 21.5q-84 0 -174 -8v-245l1 -141q0 -132 3 -193q146 -11 313 -11q112 0 188 10q49 6 104 26q25 88 51 220h67q-27 -219 -27 -292l2 -45q-115 -11 -226 -11l-157 3q-260 7 -382 7q-117 0 -311 -7v63h31q87 0 109.5 17t30 80t7.5 278v549 q0 135 -6.5 221t-14 102.5t-21.5 25.5t-86 16zM320 1510l257 344h96l258 -344h-63l-245 217l-240 -217h-63z" />
<glyph unicode="&#xcb;" horiz-adv-x="1251" d="M53 1353v62h108l106 -3q89 -3 135 -3l384 5l182 1q93 1 188 -8q-38 -118 -42 -307h-68q0 110 -11 183q-118 44 -290 44q-137 0 -287 -12q1 -94 -2 -188l-2 -154v-203q99 -6 175 -6q238 0 269.5 16.5t31.5 102.5v65h68q-7 -151 -7 -241q0 -95 7 -224h-68v58 q0 96 -37.5 117.5t-264.5 21.5q-84 0 -174 -8v-245l1 -141q0 -132 3 -193q146 -11 313 -11q112 0 188 10q49 6 104 26q25 88 51 220h67q-27 -219 -27 -292l2 -45q-115 -11 -226 -11l-157 3q-260 7 -382 7q-117 0 -311 -7v63h31q87 0 109.5 17t30 80t7.5 278v549 q0 135 -6.5 221t-14 102.5t-21.5 25.5t-86 16zM299 1631q0 45 32 77t78 32q45 0 77 -32t32 -77q0 -46 -32 -78t-77 -32q-46 0 -78 32t-32 78zM733 1631q0 45 32 77t78 32q45 0 77 -32t32 -77q0 -46 -32 -78t-77 -32t-77.5 32t-32.5 78z" />
<glyph unicode="&#xcc;" horiz-adv-x="690" d="M61 -7v63h63q93 0 111.5 45t18.5 431v339q0 400 -16 441t-96 41h-81v63q166 -7 328 -7q135 0 245 7v-63h-77q-71 0 -89 -17t-21 -86q-5 -107 -5 -381v-345q0 -389 17 -428.5t109 -39.5h66v-63q-123 7 -268 7q-169 0 -305 -7zM92 1792q0 26 18 43.5t49 17.5q19 0 35 -8.5 t53 -44.5l295 -283h-67l-269 161q-76 45 -98 71q-16 19 -16 43z" />
<glyph unicode="&#xcd;" horiz-adv-x="690" d="M61 -7v63h63q93 0 111.5 45t18.5 431v339q0 400 -16 441t-96 41h-81v63q166 -7 328 -7q135 0 245 7v-63h-77q-71 0 -89 -17t-21 -86q-5 -107 -5 -381v-345q0 -389 17 -428.5t109 -39.5h66v-63q-123 7 -268 7q-169 0 -305 -7zM173 1517l296 283q37 36 53 44.5t36 8.5 q29 0 47.5 -17.5t18.5 -43.5q0 -24 -19.5 -46.5t-94.5 -67.5l-269 -161h-68z" />
<glyph unicode="&#xce;" horiz-adv-x="690" d="M40 1510l257 344h96l258 -344h-63l-245 217l-240 -217h-63zM62 -7v63h63q93 0 111.5 45t18.5 431v339q0 400 -16 441t-96 41h-81v63q166 -7 328 -7q135 0 245 7v-63h-77q-71 0 -89 -17t-21 -86q-5 -107 -5 -381v-345q0 -389 17 -428.5t109 -39.5h66v-63q-123 7 -268 7 q-169 0 -305 -7z" />
<glyph unicode="&#xcf;" horiz-adv-x="690" d="M18 1631q0 45 32 77t78 32q45 0 77 -32t32 -77q0 -46 -32 -78t-77 -32q-46 0 -78 32t-32 78zM61 -7v63h63q93 0 111.5 45t18.5 431v339q0 400 -16 441t-96 41h-81v63q166 -7 328 -7q135 0 245 7v-63h-77q-71 0 -89 -17t-21 -86q-5 -107 -5 -381v-345q0 -389 17 -428.5 t109 -39.5h66v-63q-123 7 -268 7q-169 0 -305 -7zM452 1631q0 45 32 77t78 32q45 0 77 -32t32 -77q0 -46 -32 -78t-77 -32t-77.5 32t-32.5 78z" />
<glyph unicode="&#xd0;" horiz-adv-x="1585" d="M45 679l11 81q60 -3 182 -6v171q0 178 -12 307q-7 75 -18.5 87t-82.5 22l-80 12v63q165 -5 222 -5l269 2l219 4q132 2 271 -26t252 -112.5t172 -212t59 -294.5q0 -338 -227.5 -559t-594.5 -221l-123 3q-181 7 -229 7q-81 0 -206 -12v48l93 55q16 155 16 580l-73 1l-61 -2 l-48 -2zM426 437q0 -181 12 -339q135 -20 238 -20q280 0 435 144q187 175 187 510q0 292 -155.5 445t-455.5 153q-105 0 -249 -21q-12 -96 -12 -218v-334h247q81 0 162 6l9 -8l-17 -87q-145 6 -229 6h-172v-237z" />
<glyph unicode="&#xd1;" horiz-adv-x="1702" d="M45 -7v63h72q65 0 85 18t25 71q11 110 11 299v497q0 140 -3 277q-2 58 -15.5 79.5t-39.5 38.5t-73 17h-62v63q127 -7 194 -7q72 0 158 7q99 -121 186.5 -235.5t181.5 -230.5l342 -420q185 -226 267 -314v642q0 403 -14.5 440.5t-115.5 47.5l-75 7v63q161 -7 250 -7 q93 0 240 7v-63h-77q-93 0 -107 -62q-9 -41 -9 -438v-451q0 -182 16 -435q-136 21 -158 30.5t-42 31.5q-111 123 -233 273l-719 888v-691q0 -236 9 -329q7 -71 23.5 -86.5t95.5 -22.5l64 -5v-63q-109 7 -197 7q-61 0 -280 -7zM486 1580q57 199 221 199q70 0 186 -52 q101 -45 143 -45q84 0 126 104h54q-27 -101 -84.5 -153.5t-131.5 -52.5q-69 0 -175 45q-118 51 -165 51q-81 0 -120 -96h-54z" />
<glyph unicode="&#xd2;" horiz-adv-x="1610" d="M47 705q0 329 212 530t565 201q346 0 542.5 -186.5t196.5 -495.5q0 -333 -228 -557t-575 -224q-217 0 -374 88t-248 257t-91 387zM250 787q0 -226 77.5 -393.5t207.5 -251t297 -83.5q155 0 271 71t182.5 212t66.5 343q0 212 -73.5 362.5t-201.5 226.5t-303 76 q-160 0 -276 -67t-182 -196.5t-66 -299.5zM552 1792q0 26 18 43.5t49 17.5q19 0 35 -8.5t53 -44.5l295 -283h-67l-269 161q-76 45 -98 71q-16 19 -16 43z" />
<glyph unicode="&#xd3;" horiz-adv-x="1610" d="M47 705q0 329 212 530t565 201q346 0 542.5 -186.5t196.5 -495.5q0 -333 -228 -557t-575 -224q-217 0 -374 88t-248 257t-91 387zM250 787q0 -226 77.5 -393.5t207.5 -251t297 -83.5q155 0 271 71t182.5 212t66.5 343q0 212 -73.5 362.5t-201.5 226.5t-303 76 q-160 0 -276 -67t-182 -196.5t-66 -299.5zM607 1517l296 283q37 36 53 44.5t36 8.5q29 0 47.5 -17.5t18.5 -43.5q0 -24 -19.5 -46.5t-94.5 -67.5l-269 -161h-68z" />
<glyph unicode="&#xd4;" horiz-adv-x="1610" d="M47 705q0 329 212 530t565 201q346 0 542.5 -186.5t196.5 -495.5q0 -333 -228 -557t-575 -224q-217 0 -374 88t-248 257t-91 387zM250 787q0 -226 77.5 -393.5t207.5 -251t297 -83.5q155 0 271 71t182.5 212t66.5 343q0 212 -73.5 362.5t-201.5 226.5t-303 76 q-160 0 -276 -67t-182 -196.5t-66 -299.5zM499 1510l257 344h96l258 -344h-63l-245 217l-240 -217h-63z" />
<glyph unicode="&#xd5;" horiz-adv-x="1610" d="M47 705q0 329 212 530t565 201q346 0 542.5 -186.5t196.5 -495.5q0 -333 -228 -557t-575 -224q-217 0 -374 88t-248 257t-91 387zM250 787q0 -226 77.5 -393.5t207.5 -251t297 -83.5q155 0 271 71t182.5 212t66.5 343q0 212 -73.5 362.5t-201.5 226.5t-303 76 q-160 0 -276 -67t-182 -196.5t-66 -299.5zM440 1580q57 199 221 199q70 0 186 -52q101 -45 143 -45q84 0 126 104h54q-27 -101 -84.5 -153.5t-131.5 -52.5q-69 0 -175 45q-118 51 -165 51q-81 0 -120 -96h-54z" />
<glyph unicode="&#xd6;" horiz-adv-x="1610" d="M47 705q0 329 212 530t565 201q346 0 542.5 -186.5t196.5 -495.5q0 -333 -228 -557t-575 -224q-217 0 -374 88t-248 257t-91 387zM250 787q0 -226 77.5 -393.5t207.5 -251t297 -83.5q155 0 271 71t182.5 212t66.5 343q0 212 -73.5 362.5t-201.5 226.5t-303 76 q-160 0 -276 -67t-182 -196.5t-66 -299.5zM478 1631q0 45 32 77t78 32q45 0 77 -32t32 -77q0 -46 -32 -78t-77 -32q-46 0 -78 32t-32 78zM912 1631q0 45 32 77t78 32q45 0 77 -32t32 -77q0 -46 -32 -78t-77 -32t-77.5 32t-32.5 78z" />
<glyph unicode="&#xd7;" horiz-adv-x="1241" d="M186 368l337 337l-337 336l98 99l337 -337l337 337l98 -99l-337 -336l337 -337l-98 -98l-337 336l-337 -336z" />
<glyph unicode="&#xd8;" horiz-adv-x="1706" d="M96 710q0 323 210.5 524.5t561.5 201.5q151 0 273.5 -36t217.5 -105l160 178l65 -58l-160 -176q97 -101 141 -218t44 -267q0 -333 -227.5 -557t-568.5 -224q-129 0 -237.5 32.5t-205.5 100.5l-174 -192l-63 56l171 191q-103 106 -155.5 243.5t-52.5 305.5zM299 776 q0 -269 135 -484l809 889q-83 88 -183.5 128.5t-234.5 40.5q-269 0 -408 -178q-118 -150 -118 -396zM491 225q157 -166 389 -166q155 0 271 71t182 211t66 342q0 243 -104 425z" />
<glyph unicode="&#xd9;" horiz-adv-x="1593" d="M39 1353v63q205 -7 298 -7q98 0 288 7v-63h-73q-94 0 -113 -36t-19 -326v-392q0 -215 23.5 -299t121.5 -142t262 -58q169 0 285 62q80 43 117 133.5t37 343.5v377q0 262 -23.5 299.5t-129.5 37.5h-52v63q207 -7 263 -7q91 0 226 7v-63h-68q-79 0 -101.5 -42.5 t-22.5 -298.5v-375q0 -257 -25.5 -346.5t-93 -161.5t-180 -114t-264.5 -42q-157 0 -275 37.5t-177.5 92.5t-86 134.5t-26.5 270.5l2 190v305q0 282 -16.5 316t-105.5 34h-71zM544 1792q0 26 18 43.5t49 17.5q19 0 35 -8.5t53 -44.5l295 -283h-67l-269 161q-76 45 -98 71 q-16 19 -16 43z" />
<glyph unicode="&#xda;" horiz-adv-x="1593" d="M39 1353v63q205 -7 298 -7q98 0 288 7v-63h-73q-94 0 -113 -36t-19 -326v-392q0 -215 23.5 -299t121.5 -142t262 -58q169 0 285 62q80 43 117 133.5t37 343.5v377q0 262 -23.5 299.5t-129.5 37.5h-52v63q207 -7 263 -7q91 0 226 7v-63h-68q-79 0 -101.5 -42.5 t-22.5 -298.5v-375q0 -257 -25.5 -346.5t-93 -161.5t-180 -114t-264.5 -42q-157 0 -275 37.5t-177.5 92.5t-86 134.5t-26.5 270.5l2 190v305q0 282 -16.5 316t-105.5 34h-71zM599 1517l296 283q37 36 53 44.5t36 8.5q29 0 47.5 -17.5t18.5 -43.5q0 -24 -19.5 -46.5 t-94.5 -67.5l-269 -161h-68z" />
<glyph unicode="&#xdb;" horiz-adv-x="1593" d="M39 1353v63q205 -7 298 -7q98 0 288 7v-63h-73q-94 0 -113 -36t-19 -326v-392q0 -215 23.5 -299t121.5 -142t262 -58q169 0 285 62q80 43 117 133.5t37 343.5v377q0 262 -23.5 299.5t-129.5 37.5h-52v63q207 -7 263 -7q91 0 226 7v-63h-68q-79 0 -101.5 -42.5 t-22.5 -298.5v-375q0 -257 -25.5 -346.5t-93 -161.5t-180 -114t-264.5 -42q-157 0 -275 37.5t-177.5 92.5t-86 134.5t-26.5 270.5l2 190v305q0 282 -16.5 316t-105.5 34h-71zM491 1510l257 344h96l258 -344h-63l-245 217l-240 -217h-63z" />
<glyph unicode="&#xdc;" horiz-adv-x="1593" d="M39 1353v63q205 -7 298 -7q98 0 288 7v-63h-73q-94 0 -113 -36t-19 -326v-392q0 -215 23.5 -299t121.5 -142t262 -58q169 0 285 62q80 43 117 133.5t37 343.5v377q0 262 -23.5 299.5t-129.5 37.5h-52v63q207 -7 263 -7q91 0 226 7v-63h-68q-79 0 -101.5 -42.5 t-22.5 -298.5v-375q0 -257 -25.5 -346.5t-93 -161.5t-180 -114t-264.5 -42q-157 0 -275 37.5t-177.5 92.5t-86 134.5t-26.5 270.5l2 190v305q0 282 -16.5 316t-105.5 34h-71zM514 1631q0 45 32 77t78 32q45 0 77 -32t32 -77q0 -46 -32 -78t-77 -32q-46 0 -78 32t-32 78z M948 1631q0 45 32 77t78 32q45 0 77 -32t32 -77q0 -46 -32 -78t-77 -32t-77.5 32t-32.5 78z" />
<glyph unicode="&#xdd;" horiz-adv-x="1366" d="M14 1320v62q41 8 161 32l79 16q46 -17 74 -43q50 -47 153 -215q79 -129 262 -475q61 92 193 320l229 398h155v-25q-122 -137 -299 -413t-212 -370q-12 -33 -12 -169q0 -181 9 -287q6 -57 20.5 -68.5t102.5 -19.5l76 -8v-62q-174 7 -272 7l-322 -7v62h85q85 0 102 35 t17 316q0 82 -5 179q-129 237 -238 410t-184 253q-41 44 -71.5 58t-102.5 14zM535 1517l296 283q37 36 53 44.5t36 8.5q29 0 47.5 -17.5t18.5 -43.5q0 -24 -19.5 -46.5t-94.5 -67.5l-269 -161h-68z" />
<glyph unicode="&#xde;" horiz-adv-x="1237" d="M45 -7v63h90q63 0 81 15.5t23 63t11 290.5v559q0 290 -21 338q-14 31 -94 31h-90v63q229 -7 313 -7q98 0 285 7v-63h-69q-93 0 -112.5 -28t-21.5 -207q176 11 326 11q228 0 337 -88.5t109 -237.5q0 -173 -142 -303t-351 -130q-134 0 -281 66v-37q0 -272 18.5 -307.5 t117.5 -35.5h69v-63q-177 7 -279 7q-90 0 -319 -7zM438 513q57 -32 129.5 -51.5t134.5 -19.5q137 0 218 83.5t81 229.5q0 138 -87 217t-259 79q-100 0 -217 -35v-503z" />
<glyph unicode="&#xdf;" horiz-adv-x="1139" d="M38 -7v72h41q76 0 92.5 34.5t16.5 292.5v392h-131v40l131 67v78q0 120 28.5 187t125.5 164.5t172 133t165 35.5q150 0 238 -84t88 -218q0 -128 -74 -385h-14q-84 44 -144 44q-50 0 -79 -27t-29 -68q0 -39 23 -65q22 -26 116 -74q144 -74 188 -120q60 -64 60 -164 q0 -72 -28 -138q-21 -48 -64 -79l-61 -46q-67 -55 -99 -66q-47 -17 -113 -17q-52 0 -89 11t-88 43v-43q-114 7 -223 7q-128 0 -249 -7zM356 384q0 -257 8 -279q15 -40 97 -40h49q26 53 45 168h55v-96q34 -34 71 -51.5t78 -17.5q69 0 116.5 45t47.5 112q0 57 -33 102 q-34 44 -149 115q-109 66 -131 86q-36 32 -51 64t-15 70q0 34 10 62q7 18 36 53l117 141q84 26 118 24l43 -3q26 103 26 172q0 134 -73 213t-190 79q-137 0 -206 -92t-69 -345v-582z" />
<glyph unicode="&#xe0;" d="M68 207q0 101 48.5 176.5t138 111.5t415.5 94q-2 127 -56 190q-68 79 -194 79q-48 0 -90 -12t-78 -36q-29 -71 -53 -136l-56 15l1 67l-1 69l109 62q74 42 129.5 58t118.5 16q138 0 222.5 -62t101.5 -158q12 -72 15 -357q2 -269 12 -297t50 -28h78v-66q-114 7 -159 7 q-56 0 -150 -7l1 89q0 43 -1 87l-207 -158q-28 -21 -55 -29.5t-75 -8.5q-129 0 -197 63.5t-68 170.5zM242 255q0 -74 43 -118.5t111 -44.5q75 0 143.5 42t130.5 125l-2 222l2 49q-278 -60 -353 -112.5t-75 -162.5zM259 1313q0 26 18 43.5t49 17.5q19 0 35 -8.5t53 -44.5 l295 -283h-67l-269 161q-76 45 -98 71q-16 19 -16 43z" />
<glyph unicode="&#xe1;" d="M68 207q0 101 48.5 176.5t138 111.5t415.5 94q-2 127 -56 190q-68 79 -194 79q-48 0 -90 -12t-78 -36q-29 -71 -53 -136l-56 15l1 67l-1 69l109 62q74 42 129.5 58t118.5 16q138 0 222.5 -62t101.5 -158q12 -72 15 -357q2 -269 12 -297t50 -28h78v-66q-114 7 -159 7 q-56 0 -150 -7l1 89q0 43 -1 87l-207 -158q-28 -21 -55 -29.5t-75 -8.5q-129 0 -197 63.5t-68 170.5zM242 255q0 -74 43 -118.5t111 -44.5q75 0 143.5 42t130.5 125l-2 222l2 49q-278 -60 -353 -112.5t-75 -162.5zM315 1038l296 283q37 36 53 44.5t36 8.5q29 0 47.5 -17.5 t18.5 -43.5q0 -24 -19.5 -46.5t-94.5 -67.5l-269 -161h-68z" />
<glyph unicode="&#xe2;" d="M68 207q0 101 48.5 176.5t138 111.5t415.5 94q-2 127 -56 190q-68 79 -194 79q-48 0 -90 -12t-78 -36q-29 -71 -53 -136l-56 15l1 67l-1 69l109 62q74 42 129.5 58t118.5 16q138 0 222.5 -62t101.5 -158q12 -72 15 -357q2 -269 12 -297t50 -28h78v-66q-114 7 -159 7 q-56 0 -150 -7l1 89q0 43 -1 87l-207 -158q-28 -21 -55 -29.5t-75 -8.5q-129 0 -197 63.5t-68 170.5zM207 1032l257 344h96l258 -344h-63l-245 217l-240 -217h-63zM242 255q0 -74 43 -118.5t111 -44.5q75 0 143.5 42t130.5 125l-2 222l2 49q-278 -60 -353 -112.5t-75 -162.5 z" />
<glyph unicode="&#xe3;" d="M68 207q0 101 48.5 176.5t138 111.5t415.5 94q-2 127 -56 190q-68 79 -194 79q-48 0 -90 -12t-78 -36q-29 -71 -53 -136l-56 15l1 67l-1 69l109 62q74 42 129.5 58t118.5 16q138 0 222.5 -62t101.5 -158q12 -72 15 -357q2 -269 12 -297t50 -28h78v-66q-114 7 -159 7 q-56 0 -150 -7l1 89q0 43 -1 87l-207 -158q-28 -21 -55 -29.5t-75 -8.5q-129 0 -197 63.5t-68 170.5zM148 1102q57 199 221 199q70 0 186 -52q101 -45 143 -45q84 0 126 104h54q-27 -101 -84.5 -153.5t-131.5 -52.5q-69 0 -175 45q-118 51 -165 51q-81 0 -120 -96h-54z M242 255q0 -74 43 -118.5t111 -44.5q75 0 143.5 42t130.5 125l-2 222l2 49q-278 -60 -353 -112.5t-75 -162.5z" />
<glyph unicode="&#xe4;" d="M68 207q0 101 48.5 176.5t138 111.5t415.5 94q-2 127 -56 190q-68 79 -194 79q-48 0 -90 -12t-78 -36q-29 -71 -53 -136l-56 15l1 67l-1 69l109 62q74 42 129.5 58t118.5 16q138 0 222.5 -62t101.5 -158q12 -72 15 -357q2 -269 12 -297t50 -28h78v-66q-114 7 -159 7 q-56 0 -150 -7l1 89q0 43 -1 87l-207 -158q-28 -21 -55 -29.5t-75 -8.5q-129 0 -197 63.5t-68 170.5zM186 1153q0 45 32 77t78 32q45 0 77 -32t32 -77q0 -46 -32 -78t-77 -32q-46 0 -78 32t-32 78zM242 255q0 -74 43 -118.5t111 -44.5q75 0 143.5 42t130.5 125l-2 222l2 49 q-278 -60 -353 -112.5t-75 -162.5zM620 1153q0 45 32 77t78 32q45 0 77 -32t32 -77q0 -46 -32 -78t-77 -32t-77.5 32t-32.5 78z" />
<glyph unicode="&#xe5;" d="M68 207q0 101 48.5 176.5t138 111.5t415.5 94q-2 127 -56 190q-68 79 -194 79q-48 0 -90 -12t-78 -36q-29 -71 -53 -136l-56 15l1 67l-1 69l109 62q74 42 129.5 58t118.5 16q138 0 222.5 -62t101.5 -158q12 -72 15 -357q2 -269 12 -297t50 -28h78v-66q-114 7 -159 7 q-56 0 -150 -7l1 89q0 43 -1 87l-207 -158q-28 -21 -55 -29.5t-75 -8.5q-129 0 -197 63.5t-68 170.5zM242 255q0 -74 43 -118.5t111 -44.5q75 0 143.5 42t130.5 125l-2 222l2 49q-278 -60 -353 -112.5t-75 -162.5zM305 1282q0 86 60.5 146.5t147.5 60.5q86 0 147 -60.5 t61 -146.5q0 -85 -61 -146t-147 -61t-147 61t-61 146zM416 1282q0 -44 28.5 -74t68.5 -30t68.5 30t28.5 74t-28.5 74.5t-68.5 30.5t-68.5 -30.5t-28.5 -74.5z" />
<glyph unicode="&#xe6;" horiz-adv-x="1552" d="M61 218q0 74 30 136t65 85q57 38 186.5 69.5t316.5 44.5q-10 162 -57 224q-62 81 -175 81q-38 0 -83.5 -13t-99.5 -39l-52 -126l-53 13v127l218 122q46 18 138 18q91 0 159 -32t128 -108q87 81 159.5 110.5t167.5 29.5q180 0 281 -98.5t101 -273.5q0 -35 -5 -75 q-150 -38 -420 -38l-247 2q2 -193 98 -297t249 -104q65 0 135 23t145 69l19 -19l-42 -75q-81 -50 -165 -75.5t-171 -25.5q-261 0 -388 217q-120 -83 -246 -196q-36 -10 -67 -15.5t-58 -5.5q-122 0 -194.5 70t-72.5 175zM235 258q0 -67 46 -112.5t119 -45.5q69 0 132.5 33 t126.5 110v238q-211 -10 -375 -91q-24 -34 -36.5 -67t-12.5 -65zM819 553q164 -6 250 -6q89 0 240 6l1 47q0 141 -63.5 215t-174.5 74q-121 0 -190 -90q-60 -76 -63 -246z" />
<glyph unicode="&#xe7;" horiz-adv-x="909" d="M45 443q0 129 43 224.5t120.5 149.5t193.5 106q82 37 183 37q77 0 132.5 -12.5t119.5 -44.5q-25 -132 -27 -264h-63v50q0 64 -18.5 90.5t-84.5 52.5t-144 26q-135 0 -208 -82.5t-73 -246.5q0 -211 108 -338q97 -115 250 -115q60 0 118 15t115 44l27 -24l-41 -64 q-68 -37 -140 -55.5t-147 -18.5q-147 0 -249.5 56t-158.5 162t-56 252zM299 -354l31 60q100 -32 155 -32q52 0 79.5 24t27.5 62q0 35 -24 56.5t-68 21.5q-25 0 -55 -10l-16 13l71 159h61l-44 -106q33 6 55 6q69 0 109 -36t40 -91q0 -69 -61.5 -119.5t-167.5 -50.5 q-93 0 -193 43z" />
<glyph unicode="&#xe8;" horiz-adv-x="981" d="M57 450q0 168 70 291q46 81 170 150t241 69q177 0 280.5 -104t103.5 -291l-2 -59q-66 -16 -126 -21q-107 -8 -297 -8h-250q5 -197 101 -299t252 -102q70 0 139 23t137 69l17 -15l-32 -84q-83 -48 -171 -72t-181 -24q-203 0 -327.5 128.5t-124.5 348.5zM237 1313 q0 26 18 43.5t49 17.5q19 0 35 -8.5t53 -44.5l295 -283h-67l-269 161q-76 45 -98 71q-16 19 -16 43zM250 552q155 -7 342 -7q75 0 145 7v56q0 88 -35 167q-22 49 -77 81.5t-127 32.5q-112 0 -179 -82t-69 -255z" />
<glyph unicode="&#xe9;" horiz-adv-x="981" d="M57 450q0 168 70 291q46 81 170 150t241 69q177 0 280.5 -104t103.5 -291l-2 -59q-66 -16 -126 -21q-107 -8 -297 -8h-250q5 -197 101 -299t252 -102q70 0 139 23t137 69l17 -15l-32 -84q-83 -48 -171 -72t-181 -24q-203 0 -327.5 128.5t-124.5 348.5zM250 552 q155 -7 342 -7q75 0 145 7v56q0 88 -35 167q-22 49 -77 81.5t-127 32.5q-112 0 -179 -82t-69 -255zM293 1038l296 283q37 36 53 44.5t36 8.5q29 0 47.5 -17.5t18.5 -43.5q0 -24 -19.5 -46.5t-94.5 -67.5l-269 -161h-68z" />
<glyph unicode="&#xea;" horiz-adv-x="981" d="M57 450q0 168 70 291q46 81 170 150t241 69q177 0 280.5 -104t103.5 -291l-2 -59q-66 -16 -126 -21q-107 -8 -297 -8h-250q5 -197 101 -299t252 -102q70 0 139 23t137 69l17 -15l-32 -84q-83 -48 -171 -72t-181 -24q-203 0 -327.5 128.5t-124.5 348.5zM205 1032l257 344 h96l258 -344h-63l-245 217l-240 -217h-63zM250 552q155 -7 342 -7q75 0 145 7v56q0 88 -35 167q-22 49 -77 81.5t-127 32.5q-112 0 -179 -82t-69 -255z" />
<glyph unicode="&#xeb;" horiz-adv-x="981" d="M57 450q0 168 70 291q46 81 170 150t241 69q177 0 280.5 -104t103.5 -291l-2 -59q-66 -16 -126 -21q-107 -8 -297 -8h-250q5 -197 101 -299t252 -102q70 0 139 23t137 69l17 -15l-32 -84q-83 -48 -171 -72t-181 -24q-203 0 -327.5 128.5t-124.5 348.5zM204 1153 q0 45 32 77t78 32q45 0 77 -32t32 -77q0 -46 -32 -78t-77 -32q-46 0 -78 32t-32 78zM250 552q155 -7 342 -7q75 0 145 7v56q0 88 -35 167q-22 49 -77 81.5t-127 32.5q-112 0 -179 -82t-69 -255zM638 1153q0 45 32 77t78 32q45 0 77 -32t32 -77q0 -46 -32 -78t-77 -32 t-77.5 32t-32.5 78z" />
<glyph unicode="&#xec;" horiz-adv-x="588" d="M41 1313q0 26 18 43.5t49 17.5q19 0 35 -8.5t53 -44.5l295 -283h-67l-269 161q-76 45 -98 71q-16 19 -16 43zM47 -7v58l86 9q50 4 59 16q14 17 17 99q5 127 5 350q0 155 -5 239q-2 31 -17.5 44t-69.5 13h-75v59q122 18 179.5 33t148.5 51l24 -15q-7 -75 -9 -165 q-7 -292 -7 -431q0 -130 9 -222q4 -36 19 -50t72 -21l68 -9v-58q-146 7 -266 7q-118 0 -238 -7z" />
<glyph unicode="&#xed;" horiz-adv-x="588" d="M47 -7v58l86 9q50 4 59 16q14 17 17 99q5 127 5 350q0 155 -5 239q-2 31 -17.5 44t-69.5 13h-75v59q122 18 179.5 33t148.5 51l24 -15q-7 -75 -9 -165q-7 -292 -7 -431q0 -130 9 -222q4 -36 19 -50t72 -21l68 -9v-58q-146 7 -266 7q-118 0 -238 -7zM96 1038l296 283 q37 36 53 44.5t36 8.5q29 0 47.5 -17.5t18.5 -43.5q0 -24 -19.5 -46.5t-94.5 -67.5l-269 -161h-68z" />
<glyph unicode="&#xee;" horiz-adv-x="588" d="M-11 1032l257 344h96l258 -344h-63l-245 217l-240 -217h-63zM48 -7v58l86 9q50 4 59 16q14 17 17 99q5 127 5 350q0 155 -5 239q-2 31 -17.5 44t-69.5 13h-75v59q122 18 179.5 33t148.5 51l24 -15q-7 -75 -9 -165q-7 -292 -7 -431q0 -130 9 -222q4 -36 19 -50t72 -21 l68 -9v-58q-146 7 -266 7q-118 0 -238 -7z" />
<glyph unicode="&#xef;" horiz-adv-x="588" d="M-33 1153q0 45 32 77t78 32q45 0 77 -32t32 -77q0 -46 -32 -78t-77 -32q-46 0 -78 32t-32 78zM47 -7v58l86 9q50 4 59 16q14 17 17 99q5 127 5 350q0 155 -5 239q-2 31 -17.5 44t-69.5 13h-75v59q122 18 179.5 33t148.5 51l24 -15q-7 -75 -9 -165q-7 -292 -7 -431 q0 -130 9 -222q4 -36 19 -50t72 -21l68 -9v-58q-146 7 -266 7q-118 0 -238 -7zM401 1153q0 45 32 77t78 32q45 0 77 -32t32 -77q0 -46 -32 -78t-77 -32t-77.5 32t-32.5 78z" />
<glyph unicode="&#xf0;" horiz-adv-x="1118" d="M70 462q0 147 58.5 257.5t168 175.5t230.5 65q78 0 145 -28t136 -95q-86 286 -303 451l-211 -117l-65 54l199 114q-121 66 -274 92l28 65q96 -13 168.5 -34.5t172.5 -69.5l228 129l67 -57l-209 -116q213 -132 326.5 -338t113.5 -462q0 -260 -145.5 -417.5t-366.5 -157.5 q-208 0 -337.5 134t-129.5 355zM258 553q0 -161 46 -281t119 -173.5t165 -53.5q123 0 198 95.5t75 294.5q0 217 -93.5 335.5t-234.5 118.5q-123 0 -199 -86.5t-76 -249.5z" />
<glyph unicode="&#xf1;" horiz-adv-x="1192" d="M25 -7v58h72q74 0 86.5 34.5t12.5 415.5q0 171 -4 268q-2 32 -16 44t-79 12h-72v57q86 10 154 27t153 52q9 4 17 4q16 0 16 -23l-1 -38l-2 -135l151 134q27 24 57 35q66 22 132 22q107 0 185 -43.5t112 -113t34 -217.5l-5 -315q0 -163 14 -188q19 -32 74 -32h72v-58 q-107 7 -185 7q-76 0 -163 -7q19 195 19 527q0 134 -23.5 190t-79 90t-133.5 34q-97 0 -164.5 -49t-83.5 -108q-10 -39 -10 -204q0 -183 3 -340q1 -47 14 -59q25 -23 82 -23h71v-58q-169 7 -269 7q-106 0 -241 -7zM232 1102q57 199 221 199q70 0 186 -52q101 -45 143 -45 q84 0 126 104h54q-27 -101 -84.5 -153.5t-131.5 -52.5q-69 0 -175 45q-118 51 -165 51q-81 0 -120 -96h-54z" />
<glyph unicode="&#xf2;" horiz-adv-x="1118" d="M72 473q0 138 64 249.5t179.5 174.5t262.5 63q213 0 341 -126t128 -336q0 -248 -167 -394q-149 -131 -357 -131q-200 0 -325.5 134.5t-125.5 365.5zM260 544q0 -206 84.5 -352.5t243.5 -146.5q121 0 195.5 92t74.5 279q0 151 -44 261.5t-116 161t-161 50.5 q-79 0 -142.5 -40t-93.5 -107q-41 -91 -41 -198zM306 1313q0 26 18 43.5t49 17.5q19 0 35 -8.5t53 -44.5l295 -283h-67l-269 161q-76 45 -98 71q-16 19 -16 43z" />
<glyph unicode="&#xf3;" horiz-adv-x="1118" d="M72 473q0 138 64 249.5t179.5 174.5t262.5 63q213 0 341 -126t128 -336q0 -248 -167 -394q-149 -131 -357 -131q-200 0 -325.5 134.5t-125.5 365.5zM260 544q0 -206 84.5 -352.5t243.5 -146.5q121 0 195.5 92t74.5 279q0 151 -44 261.5t-116 161t-161 50.5 q-79 0 -142.5 -40t-93.5 -107q-41 -91 -41 -198zM362 1038l296 283q37 36 53 44.5t36 8.5q29 0 47.5 -17.5t18.5 -43.5q0 -24 -19.5 -46.5t-94.5 -67.5l-269 -161h-68z" />
<glyph unicode="&#xf4;" horiz-adv-x="1118" d="M72 473q0 138 64 249.5t179.5 174.5t262.5 63q213 0 341 -126t128 -336q0 -248 -167 -394q-149 -131 -357 -131q-200 0 -325.5 134.5t-125.5 365.5zM254 1032l257 344h96l258 -344h-63l-245 217l-240 -217h-63zM260 544q0 -206 84.5 -352.5t243.5 -146.5q121 0 195.5 92 t74.5 279q0 151 -44 261.5t-116 161t-161 50.5q-79 0 -142.5 -40t-93.5 -107q-41 -91 -41 -198z" />
<glyph unicode="&#xf5;" horiz-adv-x="1118" d="M72 473q0 138 64 249.5t179.5 174.5t262.5 63q213 0 341 -126t128 -336q0 -248 -167 -394q-149 -131 -357 -131q-200 0 -325.5 134.5t-125.5 365.5zM195 1102q57 199 221 199q70 0 186 -52q101 -45 143 -45q84 0 126 104h54q-27 -101 -84.5 -153.5t-131.5 -52.5 q-69 0 -175 45q-118 51 -165 51q-81 0 -120 -96h-54zM260 544q0 -206 84.5 -352.5t243.5 -146.5q121 0 195.5 92t74.5 279q0 151 -44 261.5t-116 161t-161 50.5q-79 0 -142.5 -40t-93.5 -107q-41 -91 -41 -198z" />
<glyph unicode="&#xf6;" horiz-adv-x="1118" d="M72 473q0 138 64 249.5t179.5 174.5t262.5 63q213 0 341 -126t128 -336q0 -248 -167 -394q-149 -131 -357 -131q-200 0 -325.5 134.5t-125.5 365.5zM233 1153q0 45 32 77t78 32q45 0 77 -32t32 -77q0 -46 -32 -78t-77 -32q-46 0 -78 32t-32 78zM260 544 q0 -206 84.5 -352.5t243.5 -146.5q121 0 195.5 92t74.5 279q0 151 -44 261.5t-116 161t-161 50.5q-79 0 -142.5 -40t-93.5 -107q-41 -91 -41 -198zM667 1153q0 45 32 77t78 32q45 0 77 -32t32 -77q0 -46 -32 -78t-77 -32t-77.5 32t-32.5 78z" />
<glyph unicode="&#xf7;" horiz-adv-x="1124" d="M59 635v139h1007v-139h-1007zM446 384q0 48 34 82.5t83 34.5q48 0 82 -34.5t34 -82.5t-34 -82.5t-82 -34.5t-82.5 34.5t-34.5 82.5zM446 1025q0 48 34 82.5t83 34.5q48 0 82 -34t34 -83q0 -48 -34 -82.5t-82 -34.5q-49 0 -83 34.5t-34 82.5z" />
<glyph unicode="&#xf8;" horiz-adv-x="1139" d="M63 -22l129 146q-108 148 -108 332q0 242 146.5 373t354.5 131q164 0 287 -79l119 133l60 -53l-116 -132q64 -68 93 -146.5t29 -185.5q0 -257 -176 -402q-147 -122 -350 -122q-158 0 -281 93l-124 -142zM272 539q0 -146 48 -278l456 517q-93 111 -225 111 q-126 0 -202.5 -88.5t-76.5 -261.5zM361 184q87 -139 234 -139q123 0 198 92.5t75 279.5q0 148 -51 284z" />
<glyph unicode="&#xf9;" horiz-adv-x="1235" d="M41 827v55q136 12 251 50l83 31q17 0 17 -25l-7 -102q-14 -212 -14 -394t15 -232.5t63 -84t117 -33.5q93 0 170.5 60t101.5 121q13 35 13 211q0 296 -11 322q-10 21 -90 21h-79v55q103 12 175 28t152 48q10 5 18 5q17 0 17 -19l-4 -93q-15 -342 -15 -602q0 -146 15 -167 q22 -31 95 -31h58v-58q-125 7 -212 7q-65 0 -130 -7l12 180l-59 -64q-69 -75 -140.5 -105.5t-176.5 -30.5q-90 0 -155 38t-94.5 98.5t-29.5 191.5q0 68 3 158l3 161q0 169 -9.5 188t-63.5 19h-89zM365 1313q0 26 18 43.5t49 17.5q19 0 35 -8.5t53 -44.5l295 -283h-67 l-269 161q-76 45 -98 71q-16 19 -16 43z" />
<glyph unicode="&#xfa;" horiz-adv-x="1235" d="M41 827v55q136 12 251 50l83 31q17 0 17 -25l-7 -102q-14 -212 -14 -394t15 -232.5t63 -84t117 -33.5q93 0 170.5 60t101.5 121q13 35 13 211q0 296 -11 322q-10 21 -90 21h-79v55q103 12 175 28t152 48q10 5 18 5q17 0 17 -19l-4 -93q-15 -342 -15 -602q0 -146 15 -167 q22 -31 95 -31h58v-58q-125 7 -212 7q-65 0 -130 -7l12 180l-59 -64q-69 -75 -140.5 -105.5t-176.5 -30.5q-90 0 -155 38t-94.5 98.5t-29.5 191.5q0 68 3 158l3 161q0 169 -9.5 188t-63.5 19h-89zM420 1038l296 283q37 36 53 44.5t36 8.5q29 0 47.5 -17.5t18.5 -43.5 q0 -24 -19.5 -46.5t-94.5 -67.5l-269 -161h-68z" />
<glyph unicode="&#xfb;" horiz-adv-x="1235" d="M41 827v55q136 12 251 50l83 31q17 0 17 -25l-7 -102q-14 -212 -14 -394t15 -232.5t63 -84t117 -33.5q93 0 170.5 60t101.5 121q13 35 13 211q0 296 -11 322q-10 21 -90 21h-79v55q103 12 175 28t152 48q10 5 18 5q17 0 17 -19l-4 -93q-15 -342 -15 -602q0 -146 15 -167 q22 -31 95 -31h58v-58q-125 7 -212 7q-65 0 -130 -7l12 180l-59 -64q-69 -75 -140.5 -105.5t-176.5 -30.5q-90 0 -155 38t-94.5 98.5t-29.5 191.5q0 68 3 158l3 161q0 169 -9.5 188t-63.5 19h-89zM313 1032l257 344h96l258 -344h-63l-245 217l-240 -217h-63z" />
<glyph unicode="&#xfc;" horiz-adv-x="1235" d="M41 827v55q136 12 251 50l83 31q17 0 17 -25l-7 -102q-14 -212 -14 -394t15 -232.5t63 -84t117 -33.5q93 0 170.5 60t101.5 121q13 35 13 211q0 296 -11 322q-10 21 -90 21h-79v55q103 12 175 28t152 48q10 5 18 5q17 0 17 -19l-4 -93q-15 -342 -15 -602q0 -146 15 -167 q22 -31 95 -31h58v-58q-125 7 -212 7q-65 0 -130 -7l12 180l-59 -64q-69 -75 -140.5 -105.5t-176.5 -30.5q-90 0 -155 38t-94.5 98.5t-29.5 191.5q0 68 3 158l3 161q0 169 -9.5 188t-63.5 19h-89zM291 1153q0 45 32 77t78 32q45 0 77 -32t32 -77q0 -46 -32 -78t-77 -32 q-46 0 -78 32t-32 78zM725 1153q0 45 32 77t78 32q45 0 77 -32t32 -77q0 -46 -32 -78t-77 -32t-77.5 32t-32.5 78z" />
<glyph unicode="&#xfd;" horiz-adv-x="1139" d="M12 883v58q104 -7 184 -7q62 0 289 7v-58h-74q-38 0 -55.5 -13t-17.5 -32q0 -16 19 -69q101 -278 238 -596q132 291 230 561q29 79 29 96q0 32 -68 42l-74 11v58q118 -7 210 -7q87 0 175 7v-58h-35q-23 0 -47 -13.5t-39 -37.5q-32 -51 -185 -389q-42 -93 -214 -504 q-152 -346 -172 -380q-39 -66 -100 -101.5t-132 -35.5q-29 0 -59.5 9t-61.5 26l47 156h23q27 -32 54 -48t55 -16q62 0 113 60t157 334q-44 116 -176 443l-93 229l-75 175q-35 93 -105 93h-40zM372 1038l296 283q37 36 53 44.5t36 8.5q29 0 47.5 -17.5t18.5 -43.5 q0 -24 -19.5 -46.5t-94.5 -67.5l-269 -161h-68z" />
<glyph unicode="&#xfe;" horiz-adv-x="1231" d="M41 -495h73q77 0 91 33t14 352v1141q0 160 -8 247q-4 43 -19.5 56.5t-72.5 13.5h-78v61q140 16 271 57l64 24q15 0 15 -26q0 -53 -3 -133l-1 -25v-548l140 124q53 47 90 59q59 19 138 19q178 0 288 -110t110 -284q0 -87 -25 -171.5t-61 -138t-81 -89.5q-15 -12 -122 -79 l-40 -29q-76 -53 -122.5 -69.5t-106.5 -16.5q-47 0 -99 13.5t-109 39.5v-141q0 -217 6 -306q3 -39 19 -51q28 -23 99 -23h54v-56q-189 6 -277 6q-97 0 -247 -6v56zM387 208q64 -72 128 -102t138 -30q158 0 242 119t84 283q0 110 -38.5 188.5t-112.5 123t-159 44.5 q-60 0 -117.5 -24t-100.5 -66.5t-55 -78.5q-9 -27 -9 -143v-314z" />
<glyph unicode="&#xff;" horiz-adv-x="1139" d="M12 883v58q104 -7 184 -7q62 0 289 7v-58h-74q-38 0 -55.5 -13t-17.5 -32q0 -16 19 -69q101 -278 238 -596q132 291 230 561q29 79 29 96q0 32 -68 42l-74 11v58q118 -7 210 -7q87 0 175 7v-58h-35q-23 0 -47 -13.5t-39 -37.5q-32 -51 -185 -389q-42 -93 -214 -504 q-152 -346 -172 -380q-39 -66 -100 -101.5t-132 -35.5q-29 0 -59.5 9t-61.5 26l47 156h23q27 -32 54 -48t55 -16q62 0 113 60t157 334q-44 116 -176 443l-93 229l-75 175q-35 93 -105 93h-40zM242 1153q0 45 32 77t78 32q45 0 77 -32t32 -77q0 -46 -32 -78t-77 -32 q-46 0 -78 32t-32 78zM676 1153q0 45 32 77t78 32q45 0 77 -32t32 -77q0 -46 -32 -78t-77 -32t-77.5 32t-32.5 78z" />
<glyph unicode="&#x152;" horiz-adv-x="2044" d="M86 691q0 230 90 389.5t267.5 257.5t393.5 98q78 0 174 -10q183 -17 278 -17q48 0 230 5q157 5 239 5q104 0 193 -8q-35 -129 -36 -307h-65q0 106 -12 186q-137 41 -296 41q-121 0 -231 -15q-8 -112 -8 -285v-257q91 -6 182 -6q191 0 219.5 18.5t28.5 108.5v57h66 q-5 -109 -5 -209q0 -108 5 -254h-66v84q0 74 -33 92.5t-217 18.5q-89 0 -180 -11v-288q0 -115 8 -288q101 -11 210 -11q150 0 234 11q55 7 112 29q35 100 48 220h68q-16 -109 -24 -338q-123 -17 -247 -17l-162 4l-240 5q-117 0 -297 -15q-132 -12 -196 -12q-233 0 -390 87 t-249 247.5t-92 383.5zM289 760q0 -323 170 -524q150 -177 389 -177q128 0 260 48q14 179 14 397v482q0 171 -14 295q-135 69 -289 69q-162 0 -283.5 -70t-184 -197t-62.5 -323z" />
<glyph unicode="&#x153;" horiz-adv-x="1694" d="M66 470q0 224 129 350q143 140 359 140q106 0 190.5 -35.5t160.5 -116.5q82 83 162 117.5t181 34.5q183 0 282 -100t99 -280q0 -23 -3 -69q-134 -30 -344 -30l-304 2q5 -179 72 -273q96 -134 276 -134q66 0 122 18t130 67l14 -16l-33 -74q-75 -49 -155 -73.5t-164 -24.5 q-108 0 -191 39t-166 133q-82 -92 -169.5 -132t-194.5 -40q-198 0 -325.5 135t-127.5 362zM240 552q0 -159 46 -279.5t117.5 -174t160.5 -53.5q113 0 184.5 94t71.5 295q0 220 -98 348q-81 107 -213 107q-119 0 -194 -86t-75 -251zM978 564q164 -11 351 -11q50 0 125 3l3 54 q0 139 -64 213t-165 74q-105 0 -176 -85.5t-74 -247.5z" />
<glyph unicode="&#x178;" horiz-adv-x="1366" d="M14 1320v62q41 8 161 32l79 16q46 -17 74 -43q50 -47 153 -215q79 -129 262 -475q61 92 193 320l229 398h155v-25q-122 -137 -299 -413t-212 -370q-12 -33 -12 -169q0 -181 9 -287q6 -57 20.5 -68.5t102.5 -19.5l76 -8v-62q-174 7 -272 7l-322 -7v62h85q85 0 102 35 t17 316q0 82 -5 179q-129 237 -238 410t-184 253q-41 44 -71.5 58t-102.5 14zM356 1631q0 45 32 77t78 32q45 0 77 -32t32 -77q0 -46 -32 -78t-77 -32q-46 0 -78 32t-32 78zM790 1631q0 45 32 77t78 32q45 0 77 -32t32 -77q0 -46 -32 -78t-77 -32t-77.5 32t-32.5 78z" />
<glyph unicode="&#x2c6;" horiz-adv-x="682" d="M36 1032l257 344h96l258 -344h-63l-245 217l-240 -217h-63z" />
<glyph unicode="&#x2dc;" horiz-adv-x="682" d="M-24 1102q57 199 221 199q70 0 186 -52q101 -45 143 -45q84 0 126 104h54q-27 -101 -84.5 -153.5t-131.5 -52.5q-69 0 -175 45q-118 51 -165 51q-81 0 -120 -96h-54z" />
<glyph unicode="&#x2000;" horiz-adv-x="983" />
<glyph unicode="&#x2001;" horiz-adv-x="1967" />
<glyph unicode="&#x2002;" horiz-adv-x="983" />
<glyph unicode="&#x2003;" horiz-adv-x="1967" />
<glyph unicode="&#x2004;" horiz-adv-x="655" />
<glyph unicode="&#x2005;" horiz-adv-x="491" />
<glyph unicode="&#x2006;" horiz-adv-x="327" />
<glyph unicode="&#x2007;" horiz-adv-x="327" />
<glyph unicode="&#x2008;" horiz-adv-x="245" />
<glyph unicode="&#x2009;" horiz-adv-x="393" />
<glyph unicode="&#x200a;" horiz-adv-x="109" />
<glyph unicode="&#x2010;" horiz-adv-x="682" d="M43 413q30 76 51 145q146 -7 243 -7q80 0 294 7l8 -15q-33 -76 -49 -144q-137 9 -252 9q-129 0 -282 -9z" />
<glyph unicode="&#x2011;" horiz-adv-x="682" d="M43 413q30 76 51 145q146 -7 243 -7q80 0 294 7l8 -15q-33 -76 -49 -144q-137 9 -252 9q-129 0 -282 -9z" />
<glyph unicode="&#x2012;" horiz-adv-x="682" d="M43 413q30 76 51 145q146 -7 243 -7q80 0 294 7l8 -15q-33 -76 -49 -144q-137 9 -252 9q-129 0 -282 -9z" />
<glyph unicode="&#x2013;" d="M66 413q30 78 50 145q148 -7 358 -7q279 0 475 7l9 -15q-33 -74 -50 -144q-137 9 -372 9q-305 0 -457 -9z" />
<glyph unicode="&#x2014;" horiz-adv-x="2048" d="M318 413q30 78 50 145q152 -7 518 -7q631 0 834 7l9 -15q-32 -73 -50 -144q-138 9 -538 9q-652 0 -810 -9z" />
<glyph unicode="&#x2018;" horiz-adv-x="569" d="M33 982q66 150 123.5 248.5t139.5 204.5l98 55l30 -25q-86 -135 -120.5 -234.5t-40.5 -215.5q-84 -21 -201 -57z" />
<glyph unicode="&#x2019;" horiz-adv-x="569" d="M33 983q85 135 119.5 234.5t41.5 215.5q94 24 200 57l30 -24q-66 -150 -123 -248t-140 -205l-98 -55z" />
<glyph unicode="&#x201a;" horiz-adv-x="569" d="M33 -256q85 134 119.5 233.5t41.5 216.5q85 21 200 57l30 -24q-65 -149 -122.5 -247t-140.5 -206l-98 -55z" />
<glyph unicode="&#x201c;" d="M59 982q66 150 123.5 248.5t139.5 204.5l98 55l30 -25q-86 -135 -120.5 -234.5t-40.5 -215.5q-84 -21 -201 -57zM462 982q66 150 123 248.5t140 204.5l98 55l30 -25q-85 -134 -119.5 -234t-41.5 -216q-86 -21 -201 -57z" />
<glyph unicode="&#x201d;" d="M59 983q85 134 119.5 234t41.5 216q94 24 200 57l30 -24q-65 -149 -123 -248.5t-140 -204.5l-98 -55zM462 983q85 134 119.5 234t41.5 216q94 24 200 57l30 -24q-66 -151 -123 -249t-140 -204l-98 -55z" />
<glyph unicode="&#x201e;" d="M59 -256q85 134 119.5 234t41.5 216q85 21 200 57l30 -24q-65 -149 -122.5 -247t-140.5 -206l-98 -55zM462 -256q85 135 119.5 234.5t41.5 215.5q83 21 200 57l30 -24q-65 -148 -123 -247.5t-140 -205.5l-98 -55z" />
<glyph unicode="&#x2022;" horiz-adv-x="1241" d="M313 746q0 127 90 217t217 90t217 -90t90 -217q0 -128 -90 -218t-217 -90t-217 90t-90 218z" />
<glyph unicode="&#x2026;" horiz-adv-x="2048" d="M225 90q0 49 34 83t83 34q48 0 82 -34.5t34 -82.5t-34 -82.5t-82 -34.5q-49 0 -83 34.5t-34 82.5zM907 90q0 49 34 83t83 34q48 0 82 -34.5t34 -82.5t-34 -82.5t-82 -34.5q-49 0 -83 34.5t-34 82.5zM1589 90q0 49 34 83t83 34q48 0 82 -34.5t34 -82.5t-34 -82.5 t-82 -34.5q-49 0 -83 34.5t-34 82.5z" />
<glyph unicode="&#x202f;" horiz-adv-x="393" />
<glyph unicode="&#x2039;" horiz-adv-x="678" d="M134 466v26q138 128 358 352l52 -34q-155 -208 -241 -330q123 -181 241 -329l-52 -35q-191 196 -358 350z" />
<glyph unicode="&#x203a;" horiz-adv-x="678" d="M134 148q148 198 241 331q-120 176 -241 329l51 34q193 -196 359 -350v-26q-151 -139 -359 -352z" />
<glyph unicode="&#x205f;" horiz-adv-x="491" />
<glyph unicode="&#x2122;" horiz-adv-x="2005" d="M61 1185q11 87 13 111.5t2 112.5h697q-5 -46 -5 -93q0 -34 5 -131h-71q-3 85 -17 109t-45.5 34t-161.5 10v-668q0 -50 12.5 -61t79.5 -11l36 1v-65h-380v65q99 0 114.5 10.5t15.5 63.5v665q-117 0 -151 -11t-49.5 -36t-23.5 -106h-71zM908 534v65q79 1 90.5 9.5 t11.5 58.5v626q0 42 -8.5 48.5t-76.5 6.5v61h231l269 -649l279 649h236v-61q-82 0 -91.5 -5.5t-9.5 -43.5v-627q0 -47 12.5 -57.5t88.5 -15.5v-65h-329v65q76 1 91.5 13.5t15.5 64.5v556l-290 -699h-47l-299 717v-586q0 -39 6 -48t20 -13t79 -5v-65h-279z" />
<glyph unicode="&#xe000;" horiz-adv-x="955" d="M0 0v955h955v-955h-955z" />
</font>
</defs></svg> 